CPUQuartus/mipsHardware.vcd
$comment
Copyright (C) 1991-2010 Altera Corporation
Your use of Altera Corporation's design tools, logic functions 
and other software and tools, and its AMPP partner logic 
functions, and any output files from any of the foregoing 
(including device programming or simulation files), and any 
associated documentation or information are expressly subject 
to the terms and conditions of the Altera Program License 
Subscription Agreement, Altera MegaCore Function License 
Agreement, or other applicable license agreement, including, 
without limitation, that your use is for the sole purpose of 
programming logic devices manufactured by Altera and sold by 
Altera or its authorized distributors.  Please refer to the 
applicable agreement for further details.
$end

$date 
  10/16/2019 19:56:27 
$end
$version 
 QUARTUS_VCD_EXPORT 1.0 
$end
$timescale
  1 ps
$end
$scope module schemeHard $end
$var reg 32 ! aluAOut[31:0] $end
$var reg 32 " aluBOut[31:0] $end
$var reg 3 # alucontrol[2:0] $end
$var reg 32 $ aluresult[31:0] $end
$var reg 16 % bSExtended[15:0] $end
$var reg 1 & clk $end
$var reg 1 ' debug $end
$var reg 6 ( funct[5:0] $end
$var reg 6 ) functOut[5:0] $end
$var reg 1 * instControl $end
$var reg 32 + IORDout[31:0] $end
$var reg 4 , memtoRegmux[3:0] $end
$var reg 1 - muxXCHG $end
$var reg 6 . opcodeW[5:0] $end
$var reg 32 / pcOut[31:0] $end
$var reg 5 0 rd[4:0] $end
$var reg 1 1 RegWriteC $end
$var reg 1 2 reset $end
$var reg 1 3 resetD2 $end
$var reg 5 4 rs[4:0] $end
$var reg 5 5 rt[4:0] $end
$var reg 32 6 sExtended[31:0] $end
$var reg 5 7 shift[4:0] $end
$var reg 32 8 shiftOut[31:0] $end
$var reg 1 9 sltOut $end
$var reg 32 : SourceSh[31:0] $end
$var reg 7 ; stateOut[6:0] $end
$var reg 32 < ulaOut_t[31:0] $end
$var reg 32 = wrData[31:0] $end
$var reg 5 > wrReg[4:0] $end
$var reg 32 ? xCHG[31:0] $end
$var reg 32 @ xchgOUT[31:0] $end
$scope module inst6 $end
$var reg 32 A Reg10[31:0] $end
$var reg 32 B Reg20[31:0] $end
$upscope $end
$upscope $end
$enddefinitions $end
#0
$dumpvars
b0 !
b0 "
b0 #
b0 $
b0 %
0&
0'
b0 (
b0 )
0*
b0 +
b0 ,
0-
b0 .
b0 /
b0 0
01
02
03
b0 4
b0 5
b0 6
b0 7
b0 8
19
b0 :
b0 ;
b0 <
b0 =
b0 >
b0 ?
b0 @
b0 A
b0 B
$end
#10000
b100 "
b1 #
b100 $
1&
1'
b1001 ,
09
b1 ;
b11100011 =
b11101 >
#20000
0&
0'
#30000
1&
1'
b10 ;
#40000
0&
0'
#50000
b100 !
b1000 $
1&
1'
1*
b100 +
b100 /
b11 ;
#60000
0&
0'
#70000
b1010000 "
b1010100 $
b10100 %
1&
1'
b10100 (
0*
b1000 .
b10100 4
b10100 5
b10100 6
b100 ;
#80000
0&
0'
#90000
1&
1'
b10100 )
b110 ;
b1010100 <
#100000
0&
0'
#110000
b0 !
b10100 "
b10100 $
1&
1'
b1000 ;
#120000
0&
0'
#130000
b0 "
b0 #
b0 $
1&
1'
b0 ,
11
19
b1000100 ;
b10100 <
b10100 =
b10100 >
#140000
0&
0'
#150000
b100 !
b100 $
1&
1'
01
09
b1000101 ;
b10100 B
#160000
0&
0'
#170000
b10100 "
1&
1'
b10100 7
19
b10100 :
b0 ;
b10100 @
#180000
0&
0'
#190000
b100 "
b1 #
b1000 $
1&
1'
b1001 ,
09
b1 ;
b11100011 =
b11101 >
#200000
0&
0'
#210000
1&
1'
b10 ;
#220000
0&
0'
#230000
b1000 !
b1100 $
1&
1'
1*
b1000 +
b1000 /
b11 ;
#240000
0&
0'
#250000
b1 %
1&
1'
b1 (
0*
b1010 4
b1010 5
b1 6
b100 ;
#260000
0&
0'
#270000
1&
1'
b1 )
b0 7
b0 :
b110 ;
b1100 <
b0 @
#280000
0&
0'
#290000
b0 !
b1 "
b1 $
1&
1'
b1000 ;
#300000
0&
0'
#310000
b0 "
b0 #
b0 $
1&
1'
b0 ,
11
19
b1000100 ;
b1 <
b1 =
b1010 >
#320000
0&
0'
#330000
b1000 !
b1000 $
1&
1'
01
09
b1000101 ;
b1 A
#340000
0&
0'
#350000
b1 "
1&
1'
b1 7
b1 :
b0 ;
b1 @
#360000
0&
0'
#370000
b100 "
b1 #
b1100 $
1&
1'
b1001 ,
b1 ;
b11100011 =
b11101 >
#380000
0&
0'
#390000
1&
1'
b10 ;
#400000
0&
0'
#410000
b1100 !
b10000 $
1&
1'
1*
b1100 +
b1100 /
b11 ;
#420000
0&
0'
#430000
b11111111111111101000000000010000 "
b11111111111111101000000000011100 $
b1010000000000100 %
1&
1'
b100 (
0*
b0 .
b10100 0
b10100 4
b11111111111111111010000000000100 6
19
b100 ;
#440000
0&
0'
#450000
1&
1'
b100 )
b10100 :
b110 ;
b11111111111111101000000000011100 <
b10100 @
#460000
0&
0'
#470000
1&
1'
b10001 ;
#480000
0&
0'
#490000
1&
1'
b10100 8
b1111 ;
#500000
0&
0'
#510000
b10100 !
b1 "
b0 #
b10100 $
1&
1'
b111 ,
11
b0 7
b101000 8
09
b1 :
b1000100 ;
b101000 =
b10100 >
#520000
0&
0'
#530000
b1100 !
b1100 $
1&
1'
b0 ,
01
b1 7
b10100 :
b1000101 ;
b11111111111111101000000000011100 =
b1010 >
b101000 B
#540000
0&
0'
#550000
1&
1'
b101000 :
b0 ;
b101000 @
#560000
0&
0'
#570000
b100 "
b1 #
b10000 $
1&
1'
b1001 ,
b1 ;
b11100011 =
b11101 >
#580000
0&
0'
#590000
1&
1'
b10 ;
#600000
0&
0'
#610000
b10000 !
b10100 $
1&
1'
1*
b10000 +
b10000 /
b11 ;
#620000
0&
0'
#630000
b11111111111111101000000000011100 "
b11111111111111101000000000101100 $
b1010000000000111 %
1&
1'
b111 (
0*
b11111111111111111010000000000111 6
19
b100 ;
#640000
0&
0'
#650000
1&
1'
b111 )
b110 ;
b11111111111111101000000000101100 <
#660000
0&
0'
#670000
1&
1'
b10010 ;
#680000
0&
0'
#690000
1&
1'
b1111 ;
#700000
0&
0'
#710000
b101000 !
b1 "
b0 #
b101000 $
1&
1'
b111 ,
11
b0 7
b10100 8
09
b1 :
b1000100 ;
b10100 =
b10100 >
#720000
0&
0'
#730000
b10000 !
b10000 $
1&
1'
b0 ,
01
b1 7
b101000 :
b1000101 ;
b11111111111111101000000000101100 =
b1010 >
b10100 B
#740000
0&
0'
#750000
1&
1'
b10100 :
b0 ;
b10100 @
#760000
0&
0'
#770000
b100 "
b1 #
b10100 $
1&
1'
b1001 ,
b1 ;
b11100011 =
b11101 >
#780000
0&
0'
#790000
1&
1'
b10 ;
#800000
0&
0'
#810000
b10100 !
b11000 $
1&
1'
1*
b10100 +
b10100 /
b11 ;
#820000
0&
0'
#830000
b0 "
b10100 $
b0 %
1&
1'
b0 (
0*
b0 0
b0 4
b0 5
b0 6
b100 ;
#840000
0&
0'
#850000
1&
1'
b0 )
b0 7
b0 :
b110 ;
b10100 <
b0 @
#860000
0&
0'
#870000
1&
1'
b1101 ;
#880000
0&
0'
#890000
b0 #
1&
1'
b0 ,
b0 8
b1111 ;
b10100 =
b0 >
#900000
0&
0'
#910000
b0 !
b0 $
1&
1'
b111 ,
11
19
b1000100 ;
b0 =
#920000
0&
0'
#930000
b10100 !
b10100 $
1&
1'
b0 ,
01
09
b1000101 ;
b10100 =
#940000
0&
0'
#950000
1&
1'
b0 ;
#960000
0&
0'
#970000
b100 "
b1 #
b11000 $
1&
1'
b1001 ,
b1 ;
b11100011 =
b11101 >
#980000
0&
0'
#990000
1&
1'
b10 ;
