CPUQuartus/mipsHardware.vcd
$comment
Copyright (C) 1991-2010 Altera Corporation
Your use of Altera Corporation's design tools, logic functions 
and other software and tools, and its AMPP partner logic 
functions, and any output files from any of the foregoing 
(including device programming or simulation files), and any 
associated documentation or information are expressly subject 
to the terms and conditions of the Altera Program License 
Subscription Agreement, Altera MegaCore Function License 
Agreement, or other applicable license agreement, including, 
without limitation, that your use is for the sole purpose of 
programming logic devices manufactured by Altera and sold by 
Altera or its authorized distributors.  Please refer to the 
applicable agreement for further details.
$end

$date 
  10/19/2019 03:21:36 
$end
$version 
 QUARTUS_VCD_EXPORT 1.0 
$end
$timescale
  1 ps
$end
$scope module schemeHard $end
$var reg 32 ! aluAOut[31:0] $end
$var reg 32 " aluBOut[31:0] $end
$var reg 3 # alucontrol[2:0] $end
$var reg 32 $ aluresult[31:0] $end
$var reg 16 % bSExtended[15:0] $end
$var reg 1 & clk $end
$var reg 2 ' controlLS[1:0] $end
$var reg 1 ( debug $end
$var reg 1 ) divByzeroOUT $end
$var reg 1 * divSTOPOUT $end
$var reg 32 + epcOUT[31:0] $end
$var reg 6 , funct[5:0] $end
$var reg 6 - functOut[5:0] $end
$var reg 32 . hiOut[31:0] $end
$var reg 1 / instControl $end
$var reg 32 0 IORDout[31:0] $end
$var reg 32 1 j[31:0] $end
$var reg 32 2 loOut[31:0] $end
$var reg 32 3 LuiOut[31:0] $end
$var reg 32 4 MDROut[31:0] $end
$var reg 32 5 memoriaOut[31:0] $end
$var reg 4 6 memtoRegmux[3:0] $end
$var reg 1 7 muxXCHG $end
$var reg 6 8 opcodeW[5:0] $end
$var reg 1 9 overflow $end
$var reg 32 : pcOut[31:0] $end
$var reg 1 ; pcWriteS $end
$var reg 32 < pcWriteSource[31:0] $end
$var reg 5 = rd[4:0] $end
$var reg 16 > rdshf[15:0] $end
$var reg 1 ? RegWriteC $end
$var reg 1 @ reset $end
$var reg 1 A resetD2 $end
$var reg 5 B rs[4:0] $end
$var reg 5 C rt[4:0] $end
$var reg 32 D sExtended[31:0] $end
$var reg 5 E shift[4:0] $end
$var reg 32 F shiftOut[31:0] $end
$var reg 1 G sltOut $end
$var reg 32 H SourceSh[31:0] $end
$var reg 7 I stateOut[6:0] $end
$var reg 32 J storeOUT[31:0] $end
$var reg 1 K storeWr $end
$var reg 32 L tratamento[31:0] $end
$var reg 32 M ulaOut_t[31:0] $end
$var reg 32 N wrData[31:0] $end
$var reg 5 O wrReg[4:0] $end
$var reg 32 P xCHG[31:0] $end
$var reg 32 Q xchgOUT[31:0] $end
$scope module inst6 $end
$var reg 32 R Reg0[31:0] $end
$var reg 32 S Reg1[31:0] $end
$var reg 32 T Reg2[31:0] $end
$var reg 32 U Reg3[31:0] $end
$var reg 32 V Reg4[31:0] $end
$var reg 32 W Reg5[31:0] $end
$var reg 32 X Reg6[31:0] $end
$var reg 32 Y Reg7[31:0] $end
$var reg 32 Z Reg8[31:0] $end
$var reg 32 [ Reg9[31:0] $end
$var reg 32 \ Reg10[31:0] $end
$var reg 32 ] Reg11[31:0] $end
$var reg 32 ^ Reg12[31:0] $end
$var reg 32 _ Reg13[31:0] $end
$var reg 32 ` Reg14[31:0] $end
$var reg 32 a Reg15[31:0] $end
$var reg 32 b Reg16[31:0] $end
$var reg 32 c Reg17[31:0] $end
$var reg 32 d Reg18[31:0] $end
$var reg 32 e Reg19[31:0] $end
$var reg 32 f Reg20[31:0] $end
$var reg 32 g Reg21[31:0] $end
$var reg 32 h Reg22[31:0] $end
$var reg 32 i Reg23[31:0] $end
$var reg 32 j Reg24[31:0] $end
$var reg 32 k Reg25[31:0] $end
$var reg 32 l Reg26[31:0] $end
$var reg 32 m Reg27[31:0] $end
$var reg 32 n Reg28[31:0] $end
$var reg 32 o Reg29[31:0] $end
$var reg 32 p Reg30[31:0] $end
$var reg 32 q Reg31[31:0] $end
$upscope $end
$upscope $end
$enddefinitions $end
#0
$dumpvars
b0 !
b0 "
b0 #
b0 $
b0 %
0&
b0 '
0(
0)
0*
b0 +
b0 ,
b0 -
b0 .
0/
b0 0
b0 1
b0 2
b0 3
b0 4
b0 5
b0 6
07
b0 8
09
b0 :
0;
b0 <
b0 =
b0 >
0?
0@
0A
b0 B
b0 C
b0 D
b0 E
b0 F
1G
b0 H
b0 I
bX J
0K
b0 L
b0 M
b0 N
b0 O
b0 P
b0 Q
b0 R
b0 S
b0 T
b0 U
b0 V
b0 W
b0 X
b0 Y
b0 Z
b0 [
b0 \
b0 ]
b0 ^
b0 _
b0 `
b0 a
b0 b
b0 c
b0 d
b0 e
b0 f
b0 g
b0 h
b0 i
b0 j
b0 k
b0 l
b0 m
b0 n
b0 o
b0 p
b0 q
$end
#10000
b100 "
b1 #
b100 $
1&
1(
b1001 6
b100 <
0G
b1 I
b11100011 N
b11101 O
#20000
0&
0(
#30000
1&
1(
b100000000100000000000000010000 5
1;
b10 I
#40000
0&
0(
#50000
b100 !
b1000 $
1&
1(
1/
b100 0
b100000000100000000000000010000 4
b100 :
0;
b1000 <
b11 I
b10000 L
#60000
0&
0(
#70000
b1000000 "
b1000100 $
b10000 %
1&
1(
b10000 ,
0/
b10000000000000001000000 1
b100000000000000000000 3
b1000 8
b1000100 <
b10000 >
b10000 C
b10000 D
b100 I
#80000
0&
0(
#90000
1&
1(
b10000 -
b100000000100010001001110001000 5
b110 I
b1000100 M
#100000
0&
0(
#110000
b0 !
b10000 "
b10000 $
1&
1(
b100000000100010001001110001000 4
b10000 <
b1000 I
b10001000 L
#120000
0&
0(
#130000
b0 "
b0 #
b0 $
1&
1(
b0 6
b0 <
1?
1G
b1000100 I
b10000 M
b10000 N
b10000 O
#140000
0&
0(
#150000
b100 !
b100 $
1&
1(
b100 <
0?
0G
b1000101 I
b10000 b
#160000
0&
0(
#170000
b10000 "
1&
1(
b10000 E
1G
b0 I
#180000
0&
0(
#190000
b100 "
b1 #
b1000 $
1&
1(
b1001 6
b1000 <
0G
b1 I
b11100011 N
b11101 O
#200000
0&
0(
#210000
1&
1(
1;
b10 I
#220000
0&
0(
#230000
b1000 !
b1100 $
1&
1(
1/
b1000 0
b1000 :
0;
b1100 <
b11 I
#240000
0&
0(
#250000
b100111000100000 "
b100111000101000 $
b1001110001000 %
1&
1(
b1000 ,
0/
b10001000100111000100000 1
b10011100010000000000000000000 3
b100111000101000 <
b10 =
b1001110001000 >
b10001 C
b1001110001000 D
b100 I
#260000
0&
0(
#270000
1&
1(
b1000 -
b100011000100011000000 5
b0 E
b110 I
b100111000101000 M
#280000
0&
0(
#290000
b0 !
b1001110001000 "
b1001110001000 $
1&
1(
b100011000100011000000 4
b1001110001000 <
b1000 I
b11000000 L
#300000
0&
0(
#310000
b0 "
b0 #
b0 $
1&
1(
b0 6
b0 <
1?
1G
b1000100 I
b1001110001000 M
b1001110001000 N
b10001 O
#320000
0&
0(
#330000
b1000 !
b1000 $
1&
1(
b1000 <
0?
0G
b1000101 I
b1001110001000 c
#340000
0&
0(
#350000
b1001110001000 "
1&
1(
b1000 E
1G
b0 I
#360000
0&
0(
#370000
b100 "
b1 #
b1100 $
1&
1(
b1001 6
b1100 <
0G
b1 I
b11100011 N
b11101 O
#380000
0&
0(
#390000
1&
1(
1;
b10 I
#400000
0&
0(
#410000
b1100 !
b10000 $
1&
1(
1/
b1100 0
b1100 :
0;
b10000 <
b11 I
#420000
0&
0(
#430000
b11111111111111100010001100000000 "
b11111111111111100010001100001100 $
b1000100011000000 %
1&
1(
b0 ,
0/
b10001100010001100000000 1
b10001000110000000000000000000000 3
b0 8
b11111111111111100010001100001100 <
b10001 =
b1000100011000000 >
b11111111111111111000100011000000 D
1G
b100 I
#440000
0&
0(
#450000
1&
1(
b0 -
b110000100010000000000000010 5
b110 I
b11111111111111100010001100001100 M
#460000
0&
0(
#470000
1&
1(
b110000100010000000000000010 4
b11 E
b1001110001000 H
b1101 I
b10 L
#480000
0&
0(
#490000
b1001110001000 "
b0 #
b1100 $
1&
1(
b0 6
b1100 <
b1001110001000 F
b1111 I
b11111111111111100010001100001100 N
b10001 O
#500000
0&
0(
#510000
b0 !
b0 $
1&
1(
b111 6
b0 <
1?
b1001110001000000 F
b1000100 I
b1001110001000000 N
#520000
0&
0(
#530000
b1100 !
b1100 $
1&
1(
b0 6
b1100 <
0?
b1000 E
b0 H
b1000101 I
b11111111111111100010001100001100 N
b1001110001000000 c
#540000
0&
0(
#550000
b1001110001000000 "
1&
1(
b0 E
b0 I
#560000
0&
0(
#570000
b100 "
b1 #
b10000 $
1&
1(
b1001 6
b10000 <
0G
b1 I
b11100011 N
b11101 O
#580000
0&
0(
#590000
1&
1(
1;
b10 I
#600000
0&
0(
#610000
b10000 !
b10100 $
1&
1(
1/
b10000 0
b10000 :
0;
b10100 <
b11 I
#620000
0&
0(
#630000
b1000 "
b11000 $
b10 %
1&
1(
1*
b10 ,
0/
b1000010001000000000000001000 1
b100000000000000000 3
b1 8
b11000 <
b0 =
b10 >
b10000 B
b10 D
b100 I
#640000
0&
0(
#650000
1&
1(
b10 -
b1001000000100000 5
b10000 H
b110 I
b11000 M
b10000 Q
#660000
0&
0(
#670000
b1001110001000000 "
b0 #
b10000 $
1&
1(
b1001000000100000 4
1G
b101000 I
b100000 L
#680000
0&
0(
#690000
1&
1(
b10000 <
b101001 I
#700000
0&
0(
#710000
1&
1(
b101010 I
#720000
0&
0(
#730000
b1001000000100000 !
b111 #
b0 $
1&
1(
b0 0
1;
b11000 <
b1000100 I
#740000
0&
0(
#750000
b11000 !
b0 #
b11000 $
1&
1(
b11000 0
b0 6
b11000 :
0;
b1000101 I
b11000 N
b10001 O
#760000
0&
0(
#770000
1&
1(
b100000000100000000000000010000 5
b0 I
#780000
0&
0(
#790000
b100 "
b1 #
b11100 $
1&
1(
b100000000100000000000000010000 4
b100010001100011110110001111000 5
b1001 6
b11100 <
0G
b1 I
b10000 L
b11100011 N
b11101 O
#800000
0&
0(
#810000
1&
1(
b100010001100011110110001111000 4
1;
b10 I
b1111000 L
#820000
0&
0(
#830000
b11100 !
b100000 $
1&
1(
1/
b11100 0
b11100 :
0;
b100000 <
b11 I
#840000
0&
0(
#850000
b11111111111111111011000111100000 "
b11111111111111111011000111111100 $
b1110110001111000 %
1&
1(
b111000 ,
0/
b1000110001111011000111100000 1
b11101100011110000000000000000000 3
b1000 8
b11111111111111111011000111111100 <
b11101 =
b1110110001111000 >
b10001 B
b11111111111111111110110001111000 D
1G
b100 I
#860000
0&
0(
#870000
1&
1(
b111000 -
b110000100011111111111111101 5
b1001110001000000 H
b110 I
b11111111111111111011000111111100 M
b1001110001000000 Q
#880000
0&
0(
#890000
b1001110001000000 !
b11111111111111111110110001111000 "
b1000100010111000 $
1&
1(
b110000100011111111111111101 4
b1000100010111000 <
0G
b1000 I
b11111101 L
#900000
0&
0(
#910000
b1001110001000000 "
b0 #
b1001110001000000 $
1&
1(
b0 6
b1001110001000000 <
1?
1G
b1000100 I
b1000100010111000 M
b1000100010111000 N
b10001 O
#920000
0&
0(
#930000
b11100 !
b11100 $
1&
1(
b11100 <
0?
b1000101 I
b1000100010111000 c
#940000
0&
0(
#950000
b1000100010111000 "
1&
1(
b11000 E
b1000100010111000 H
b0 I
b1000100010111000 Q
#960000
0&
0(
#970000
b100 "
b1 #
b100000 $
1&
1(
b1001 6
b100000 <
0G
b1 I
b11100011 N
b11101 O
#980000
0&
0(
#990000
1&
1(
1;
b10 I
#1000000
0&
0(
#1010000
b100000 !
b100100 $
1&
1(
1/
b100000 0
b100000 :
0;
b100100 <
b11 I
#1020000
0&
0(
#1030000
b11111111111111111111111111110100 "
b10100 $
b1111111111111101 %
1&
1(
b111101 ,
0/
b1000010001111111111111110100 1
b11111111111111010000000000000000 3
b1 8
b10100 <
b11111 =
b1111111111111101 >
b10000 B
b11111111111111111111111111111101 D
b100 I
#1040000
0&
0(
#1050000
1&
1(
b111101 -
b111100000100110000000000000001 5
b10000 H
b110 I
b10100 M
b10000 Q
#1060000
0&
0(
#1070000
b10000 !
b1000100010111000 "
b0 #
b10000 $
1&
1(
b10000 0
b111100000100110000000000000001 4
1G
b101000 I
b1 L
#1080000
0&
0(
#1090000
1&
1(
b10000 <
b101001 I
#1100000
0&
0(
#1110000
1&
1(
b1001000000100000 5
b101010 I
#1120000
0&
0(
#1130000
b1001000000100000 !
b111 #
b0 $
1&
1(
b0 0
b1001000000100000 4
b10100 <
0G
b1000100 I
b100000 L
#1140000
0&
0(
#1150000
b100000 !
b0 #
b100000 $
1&
1(
b100000 0
b0 6
b100000 <
1G
b1000101 I
b10100 N
b10001 O
#1160000
0&
0(
#1170000
1&
1(
b100000000100000000000000010000 5
b0 I
#1180000
0&
0(
#1190000
b100 "
b1 #
b100100 $
1&
1(
b100000000100000000000000010000 4
b111100000100110000000000000001 5
b1001 6
b100100 <
0G
b1 I
b10000 L
b11100011 N
b11101 O
#1200000
0&
0(
#1210000
1&
1(
b111100000100110000000000000001 4
1;
b10 I
b1 L
#1220000
0&
0(
#1230000
b100100 !
b101000 $
1&
1(
1/
b100100 0
b100100 :
0;
b101000 <
b11 I
#1240000
0&
0(
#1250000
b1 %
1&
1(
b1 ,
0/
b10011000000000000000100 1
b10000000000000000 3
b1111 8
b0 =
b1 >
b0 B
b10011 C
b1 D
b100 I
#1260000
0&
0(
#1270000
1&
1(
b1 -
b0 5
b0 E
b0 H
b110 I
b101000 M
b0 Q
#1280000
0&
0(
#1290000
b0 !
b1 "
b0 #
b0 $
1&
1(
b0 4
b110 6
b0 <
1?
1G
b1000100 I
b0 L
b10000000000000000 N
b10011 O
#1300000
0&
0(
#1310000
b100100 !
b0 "
b100100 $
1&
1(
b0 6
b100100 <
0?
0G
b1000101 I
b101000 N
b10000000000000000 e
#1320000
0&
0(
#1330000
b10000000000000000 "
1&
1(
1G
b0 I
#1340000
0&
0(
#1350000
b100 "
b1 #
b101000 $
1&
1(
b1001 6
b101000 <
0G
b1 I
b11100011 N
b11101 O
#1360000
0&
0(
#1370000
1&
1(
1;
b10 I
#1380000
0&
0(
#1390000
b101000 !
b101100 $
1&
1(
1/
b101000 0
b101000 :
0;
b101100 <
b11 I
#1400000
0&
0(
#1410000
b0 "
b101000 $
b0 %
1&
1(
b0 ,
0/
b0 1
b0 3
b0 8
b101000 <
b0 >
b0 C
b0 D
b100 I
#1420000
0&
0(
#1430000
1&
1(
b0 -
b110 I
#1440000
0&
0(
#1450000
1&
1(
b1101 I
#1460000
0&
0(
#1470000
b0 #
1&
1(
b0 6
b0 F
b1111 I
b101000 N
b0 O
#1480000
0&
0(
#1490000
b0 !
b0 $
1&
1(
b111 6
b0 <
1?
1G
b1000100 I
b0 N
#1500000
0&
0(
#1510000
b101000 !
b101000 $
1&
1(
b0 6
b101000 <
0?
0G
b1000101 I
b101000 N
#1520000
0&
0(
#1530000
1&
1(
b0 I
#1540000
0&
0(
#1550000
b100 "
b1 #
b101100 $
1&
1(
b1001 6
b101100 <
b1 I
b11100011 N
b11101 O
#1560000
0&
0(
#1570000
1&
1(
1;
b10 I
#1580000
0&
0(
#1590000
b101100 !
b110000 $
1&
1(
1/
b101100 0
b101100 :
0;
b110000 <
b11 I
#1600000
0&
0(
#1610000
b0 "
b101100 $
1&
1(
0/
b101100 <
b100 I
#1620000
0&
0(
#1630000
1&
1(
b110 I
b101100 M
#1640000
0&
0(
#1650000
1&
1(
b1101 I
#1660000
0&
0(
#1670000
b0 #
1&
1(
b0 6
b1111 I
b101100 N
b0 O
#1680000
0&
0(
#1690000
b0 !
b0 $
1&
1(
b111 6
b0 <
1?
1G
b1000100 I
b0 N
#1700000
0&
0(
#1710000
b101100 !
b101100 $
1&
1(
b0 6
b101100 <
0?
0G
b1000101 I
b101100 N
#1720000
0&
0(
#1730000
1&
1(
b0 I
#1740000
0&
0(
#1750000
b100 "
b1 #
b110000 $
1&
1(
b1001 6
b110000 <
b1 I
b11100011 N
b11101 O
#1760000
0&
0(
#1770000
1&
1(
1;
b10 I
#1780000
0&
0(
#1790000
b110000 !
b110100 $
1&
1(
1/
b110000 0
b110000 :
0;
b110100 <
b11 I
#1800000
0&
0(
#1810000
b0 "
b110000 $
1&
1(
0/
b110000 <
b100 I
#1820000
0&
0(
#1830000
1&
1(
b110 I
b110000 M
#1840000
0&
0(
#1850000
1&
1(
b1101 I
#1860000
0&
0(
#1870000
b0 #
1&
1(
b0 6
b1111 I
b110000 N
b0 O
#1880000
0&
0(
#1890000
b0 !
b0 $
1&
1(
b111 6
b0 <
1?
1G
b1000100 I
b0 N
#1900000
0&
0(
#1910000
b110000 !
b110000 $
1&
1(
b0 6
b110000 <
0?
0G
b1000101 I
b110000 N
#1920000
0&
0(
#1930000
1&
1(
b0 I
#1940000
0&
0(
#1950000
b100 "
b1 #
b110100 $
1&
1(
b1001 6
b110100 <
b1 I
b11100011 N
b11101 O
#1960000
0&
0(
#1970000
1&
1(
1;
b10 I
#1980000
0&
0(
#1990000
b110100 !
b111000 $
1&
1(
1/
b110100 0
b110100 :
0;
b111000 <
b11 I
#2000000
0&
0(
#2010000
b0 "
b110100 $
1&
1(
0/
b110100 <
b100 I
#2020000
0&
0(
#2030000
1&
1(
b110 I
b110100 M
#2040000
0&
0(
#2050000
1&
1(
b1101 I
#2060000
0&
0(
#2070000
b0 #
1&
1(
b0 6
b1111 I
b110100 N
b0 O
#2080000
0&
0(
#2090000
b0 !
b0 $
1&
1(
b111 6
b0 <
1?
1G
b1000100 I
b0 N
#2100000
0&
0(
#2110000
b110100 !
b110100 $
1&
1(
b0 6
b110100 <
0?
0G
b1000101 I
b110100 N
#2120000
0&
0(
#2130000
1&
1(
b0 I
#2140000
0&
0(
#2150000
b100 "
b1 #
b111000 $
1&
1(
b1001 6
b111000 <
b1 I
b11100011 N
b11101 O
#2160000
0&
0(
#2170000
1&
1(
1;
b10 I
#2180000
0&
0(
#2190000
b111000 !
b111100 $
1&
1(
1/
b111000 0
b111000 :
0;
b111100 <
b11 I
#2200000
0&
0(
#2210000
b0 "
b111000 $
1&
1(
0/
b111000 <
b100 I
#2220000
0&
0(
#2230000
1&
1(
b110 I
b111000 M
#2240000
0&
0(
#2250000
1&
1(
b1101 I
#2260000
0&
0(
#2270000
b0 #
1&
1(
b0 6
b1111 I
b111000 N
b0 O
#2280000
0&
0(
#2290000
b0 !
b0 $
1&
1(
b111 6
b0 <
1?
1G
b1000100 I
b0 N
#2300000
0&
0(
#2310000
b111000 !
b111000 $
1&
1(
b0 6
b111000 <
0?
0G
b1000101 I
b111000 N
#2320000
0&
0(
#2330000
1&
1(
b0 I
#2340000
0&
0(
#2350000
b100 "
b1 #
b111100 $
1&
1(
b1001 6
b111100 <
b1 I
b11100011 N
b11101 O
#2360000
0&
0(
#2370000
1&
1(
1;
b10 I
#2380000
0&
0(
#2390000
b111100 !
b1000000 $
1&
1(
1/
b111100 0
b111100 :
0;
b1000000 <
b11 I
#2400000
0&
0(
#2410000
b0 "
b111100 $
1&
1(
0/
b111100 <
b100 I
#2420000
0&
0(
#2430000
1&
1(
b110 I
b111100 M
#2440000
0&
0(
#2450000
1&
1(
b1101 I
#2460000
0&
0(
#2470000
b0 #
1&
1(
b0 6
b1111 I
b111100 N
b0 O
#2480000
0&
0(
#2490000
b0 !
b0 $
1&
1(
b111 6
b0 <
1?
1G
b1000100 I
b0 N
#2500000
0&
0(
#2510000
b111100 !
b111100 $
1&
1(
b0 6
b111100 <
0?
0G
b1000101 I
b111100 N
#2520000
0&
0(
#2530000
1&
1(
b0 I
#2540000
0&
0(
#2550000
b100 "
b1 #
b1000000 $
1&
1(
b1001 6
b1000000 <
b1 I
b11100011 N
b11101 O
#2560000
0&
0(
#2570000
1&
1(
1;
b10 I
#2580000
0&
0(
#2590000
b1000000 !
b1000100 $
1&
1(
1/
b1000000 0
b1000000 :
0;
b1000100 <
b11 I
#2600000
0&
0(
#2610000
b0 "
b1000000 $
1&
1(
0/
b1000000 <
b100 I
#2620000
0&
0(
#2630000
1&
1(
b110 I
b1000000 M
#2640000
0&
0(
#2650000
1&
1(
b1101 I
#2660000
0&
0(
#2670000
b0 #
1&
1(
b0 6
b1111 I
b1000000 N
b0 O
#2680000
0&
0(
#2690000
b0 !
b0 $
1&
1(
b111 6
b0 <
1?
1G
b1000100 I
b0 N
#2700000
0&
0(
#2710000
b1000000 !
b1000000 $
1&
1(
b0 6
b1000000 <
0?
0G
b1000101 I
b1000000 N
#2720000
0&
0(
#2730000
1&
1(
b0 I
#2740000
0&
0(
#2750000
b100 "
b1 #
b1000100 $
1&
1(
b1001 6
b1000100 <
b1 I
b11100011 N
b11101 O
#2760000
0&
0(
#2770000
1&
1(
1;
b10 I
#2780000
0&
0(
#2790000
b1000100 !
b1001000 $
1&
1(
1/
b1000100 0
b1000100 :
0;
b1001000 <
b11 I
#2800000
0&
0(
#2810000
b0 "
b1000100 $
1&
1(
0/
b1000100 <
b100 I
#2820000
0&
0(
#2830000
1&
1(
b110 I
b1000100 M
#2840000
0&
0(
#2850000
1&
1(
b1101 I
#2860000
0&
0(
#2870000
b0 #
1&
1(
b0 6
b1111 I
b1000100 N
b0 O
#2880000
0&
0(
#2890000
b0 !
b0 $
1&
1(
b111 6
b0 <
1?
1G
b1000100 I
b0 N
#2900000
0&
0(
#2910000
b1000100 !
b1000100 $
1&
1(
b0 6
b1000100 <
0?
0G
b1000101 I
b1000100 N
#2920000
0&
0(
#2930000
1&
1(
b0 I
#2940000
0&
0(
#2950000
b100 "
b1 #
b1001000 $
1&
1(
b1001 6
b1001000 <
b1 I
b11100011 N
b11101 O
#2960000
0&
0(
#2970000
1&
1(
1;
b10 I
#2980000
0&
0(
#2990000
b1001000 !
b1001100 $
1&
1(
1/
b1001000 0
b1001000 :
0;
b1001100 <
b11 I
