CPUQuartus/mipsHardware.vcd
$comment
Copyright (C) 1991-2010 Altera Corporation
Your use of Altera Corporation's design tools, logic functions 
and other software and tools, and its AMPP partner logic 
functions, and any output files from any of the foregoing 
(including device programming or simulation files), and any 
associated documentation or information are expressly subject 
to the terms and conditions of the Altera Program License 
Subscription Agreement, Altera MegaCore Function License 
Agreement, or other applicable license agreement, including, 
without limitation, that your use is for the sole purpose of 
programming logic devices manufactured by Altera and sold by 
Altera or its authorized distributors.  Please refer to the 
applicable agreement for further details.
$end

$date 
  10/19/2019 08:32:43 
$end
$version 
 QUARTUS_VCD_EXPORT 1.0 
$end
$timescale
  1 ps
$end
$scope module schemeHard $end
$var reg 32 ! aluAOut[31:0] $end
$var reg 32 " aluBOut[31:0] $end
$var reg 3 # alucontrol[2:0] $end
$var reg 32 $ aluresult[31:0] $end
$var reg 16 % bSExtended[15:0] $end
$var reg 1 & clk $end
$var reg 2 ' controlLS[1:0] $end
$var reg 1 ( debug $end
$var reg 1 ) divByzeroOUT $end
$var reg 1 * divSTOPOUT $end
$var reg 32 + epcOUT[31:0] $end
$var reg 6 , funct[5:0] $end
$var reg 6 - functOut[5:0] $end
$var reg 32 . hiOut[31:0] $end
$var reg 1 / instControl $end
$var reg 32 0 IORDout[31:0] $end
$var reg 32 1 j[31:0] $end
$var reg 32 2 loOut[31:0] $end
$var reg 32 3 LuiOut[31:0] $end
$var reg 32 4 MDROut[31:0] $end
$var reg 32 5 memoriaOut[31:0] $end
$var reg 4 6 memtoRegmux[3:0] $end
$var reg 1 7 multStopOut $end
$var reg 1 8 muxXCHG $end
$var reg 6 9 opcodeW[5:0] $end
$var reg 1 : overflow $end
$var reg 32 ; pcOut[31:0] $end
$var reg 1 < pcWriteS $end
$var reg 32 = pcWriteSource[31:0] $end
$var reg 5 > rd[4:0] $end
$var reg 16 ? rdshf[15:0] $end
$var reg 1 @ RegWriteC $end
$var reg 1 A reset $end
$var reg 1 B resetD2 $end
$var reg 5 C rs[4:0] $end
$var reg 5 D rt[4:0] $end
$var reg 32 E sExtended[31:0] $end
$var reg 5 F shift[4:0] $end
$var reg 32 G shiftOut[31:0] $end
$var reg 1 H sltOut $end
$var reg 32 I SourceSh[31:0] $end
$var reg 7 J stateOut[6:0] $end
$var reg 32 K storeOUT[31:0] $end
$var reg 1 L storeWr $end
$var reg 32 M tratamento[31:0] $end
$var reg 32 N ulaOut_t[31:0] $end
$var reg 32 O wrData[31:0] $end
$var reg 5 P wrReg[4:0] $end
$var reg 32 Q xCHG[31:0] $end
$var reg 32 R xchgOUT[31:0] $end
$scope module inst6 $end
$var reg 32 S Reg0[31:0] $end
$var reg 32 T Reg1[31:0] $end
$var reg 32 U Reg2[31:0] $end
$var reg 32 V Reg3[31:0] $end
$var reg 32 W Reg4[31:0] $end
$var reg 32 X Reg5[31:0] $end
$var reg 32 Y Reg6[31:0] $end
$var reg 32 Z Reg7[31:0] $end
$var reg 32 [ Reg8[31:0] $end
$var reg 32 \ Reg9[31:0] $end
$var reg 32 ] Reg10[31:0] $end
$var reg 32 ^ Reg11[31:0] $end
$var reg 32 _ Reg12[31:0] $end
$var reg 32 ` Reg13[31:0] $end
$var reg 32 a Reg14[31:0] $end
$var reg 32 b Reg15[31:0] $end
$var reg 32 c Reg16[31:0] $end
$var reg 32 d Reg17[31:0] $end
$var reg 32 e Reg18[31:0] $end
$var reg 32 f Reg19[31:0] $end
$var reg 32 g Reg20[31:0] $end
$var reg 32 h Reg21[31:0] $end
$var reg 32 i Reg22[31:0] $end
$var reg 32 j Reg23[31:0] $end
$var reg 32 k Reg24[31:0] $end
$var reg 32 l Reg25[31:0] $end
$var reg 32 m Reg26[31:0] $end
$var reg 32 n Reg27[31:0] $end
$var reg 32 o Reg28[31:0] $end
$var reg 32 p Reg29[31:0] $end
$var reg 32 q Reg30[31:0] $end
$var reg 32 r Reg31[31:0] $end
$upscope $end
$upscope $end
$enddefinitions $end
#0
$dumpvars
b0 !
b0 "
b0 #
b0 $
b0 %
0&
b0 '
0(
0)
0*
b0 +
b0 ,
b0 -
b0 .
0/
b0 0
b0 1
b0 2
b0 3
b0 4
b0 5
b0 6
07
08
b0 9
0:
b0 ;
0<
b0 =
b0 >
b0 ?
0@
0A
0B
b0 C
b0 D
b0 E
b0 F
b0 G
1H
b0 I
b0 J
bX K
0L
b0 M
b0 N
b0 O
b0 P
b0 Q
b0 R
b0 S
b0 T
b0 U
b0 V
b0 W
b0 X
b0 Y
b0 Z
b0 [
b0 \
b0 ]
b0 ^
b0 _
b0 `
b0 a
b0 b
b0 c
b0 d
b0 e
b0 f
b0 g
b0 h
b0 i
b0 j
b0 k
b0 l
b0 m
b0 n
b0 o
b0 p
b0 q
b0 r
$end
#10000
b100 "
b1 #
b100 $
1&
1(
b1001 6
b100 =
0H
b1 J
b11100011 O
b11101 P
#20000
0&
0(
#30000
1&
1(
b100000000000010000000000011001 5
1<
b10 J
#40000
0&
0(
#50000
b100 !
b1000 $
1&
1(
1/
b100 0
b100000000000010000000000011001 4
b100 ;
0<
b1000 =
b11 J
b11001 M
#60000
0&
0(
#70000
b1100100 "
b1101000 $
b11001 %
1&
1(
b11001 ,
0/
b1000000000001100100 1
b110010000000000000000 3
b1000 9
b1101000 =
b11001 ?
b1 D
b11001 E
b100 J
#80000
0&
0(
#90000
1&
1(
b11001 -
b100000000000100000000000110100 5
b110 J
b1101000 N
#100000
0&
0(
#110000
b0 !
b11001 "
b11001 $
1&
1(
b100000000000100000000000110100 4
b11001 =
b1000 J
b110100 M
#120000
0&
0(
#130000
b0 "
b0 #
b0 $
1&
1(
b0 6
b0 =
1@
1H
b1000100 J
b11001 N
b11001 O
b1 P
#140000
0&
0(
#150000
b100 !
b100 $
1&
1(
b100 =
0@
0H
b1000101 J
b11001 T
#160000
0&
0(
#170000
b11001 "
1&
1(
b11001 F
1H
b0 J
#180000
0&
0(
#190000
b100 "
b1 #
b1000 $
1&
1(
b1001 6
b1000 =
0H
b1 J
b11100011 O
b11101 P
#200000
0&
0(
#210000
1&
1(
1<
b10 J
#220000
0&
0(
#230000
b1000 !
b1100 $
1&
1(
1/
b1000 0
b1000 ;
0<
b1100 =
b11 J
#240000
0&
0(
#250000
b11010000 "
b11011000 $
b110100 %
1&
1(
b110100 ,
0/
b10000000000011010000 1
b1101000000000000000000 3
b11011000 =
b110100 ?
b10 D
b110100 E
b100 J
#260000
0&
0(
#270000
1&
1(
b110100 -
b10000010001100000100000 5
b0 F
b110 J
b11011000 N
#280000
0&
0(
#290000
b0 !
b110100 "
b110100 $
1&
1(
b10000010001100000100000 4
b110100 =
b1000 J
b100000 M
#300000
0&
0(
#310000
b0 "
b0 #
b0 $
1&
1(
b0 6
b0 =
1@
1H
b1000100 J
b110100 N
b110100 O
b10 P
#320000
0&
0(
#330000
b1000 !
b1000 $
1&
1(
b1000 =
0@
0H
b1000101 J
b110100 U
#340000
0&
0(
#350000
b110100 "
1&
1(
b10100 F
1H
b0 J
#360000
0&
0(
#370000
b100 "
b1 #
b1100 $
1&
1(
b1001 6
b1100 =
0H
b1 J
b11100011 O
b11101 P
#380000
0&
0(
#390000
1&
1(
1<
b10 J
#400000
0&
0(
#410000
b1100 !
b10000 $
1&
1(
1/
b1100 0
b1100 ;
0<
b10000 =
b11 J
#420000
0&
0(
#430000
b110000010000000 "
b110000010001100 $
b1100000100000 %
1&
1(
b100000 ,
0/
b1000001000110000010000000 1
b11000001000000000000000000000 3
b0 9
b110000010001100 =
b11 >
b1100000100000 ?
b10 C
b1 D
b1100000100000 E
b100 J
#440000
0&
0(
#450000
1&
1(
b100000 -
b1000100010000000100010 5
b11001 F
b110100 I
b110 J
b110000010001100 N
b110100 R
#460000
0&
0(
#470000
b110100 !
b11001 "
b1001101 $
1&
1(
b1000100010000000100010 4
b1001101 =
b111 J
b100010 M
#480000
0&
0(
#490000
b0 #
b110100 $
1&
1(
b0 6
b110100 =
1@
b1000100 J
b1001101 N
b1001101 O
b11 P
#500000
0&
0(
#510000
b1100 !
b1100 $
1&
1(
b1100 =
0@
1H
b1000101 J
b1 P
b1001101 V
#520000
0&
0(
#530000
1&
1(
b0 J
#540000
0&
0(
#550000
b100 "
b1 #
b10000 $
1&
1(
b1001 6
b10000 =
0H
b1 J
b11100011 O
b11101 P
#560000
0&
0(
#570000
1&
1(
1<
b10 J
#580000
0&
0(
#590000
b10000 !
b10100 $
1&
1(
1/
b10000 0
b10000 ;
0<
b10100 =
b11 J
#600000
0&
0(
#610000
b1000000010001000 "
b1000000010011000 $
b10000000100010 %
1&
1(
b100010 ,
0/
b100010001000000010001000 1
b100000001000100000000000000000 3
b1000000010011000 =
b100 >
b10000000100010 ?
b1 C
b10 D
b10000000100010 E
b100 J
#620000
0&
0(
#630000
1&
1(
b100010 -
b10000010010100000100100 5
b10100 F
b11001 I
b110 J
b1000000010011000 N
b11001 R
#640000
0&
0(
#650000
b11001 !
b110100 "
b10 #
b11111111111111111111111111100101 $
1&
1(
b10000010010100000100100 4
b11111111111111111111111111100101 =
1H
b111 J
b100100 M
#660000
0&
0(
#670000
b0 #
b11001 $
1&
1(
b0 6
b11001 =
1@
b1000100 J
b11111111111111111111111111100101 N
b11111111111111111111111111100101 O
b100 P
#680000
0&
0(
#690000
b10000 !
b10000 $
1&
1(
b10000 =
0@
b1000101 J
b10 P
b11111111111111111111111111100101 W
#700000
0&
0(
#710000
1&
1(
b0 J
#720000
0&
0(
#730000
b100 "
b1 #
b10100 $
1&
1(
b1001 6
b10100 =
0H
b1 J
b11100011 O
b11101 P
#740000
0&
0(
#750000
1&
1(
1<
b10 J
#760000
0&
0(
#770000
b10100 !
b11000 $
1&
1(
1/
b10100 0
b10100 ;
0<
b11000 =
b11 J
#780000
0&
0(
#790000
b1010000010010000 "
b1010000010100100 $
b10100000100100 %
1&
1(
b100100 ,
0/
b1000001001010000010010000 1
b101000001001000000000000000000 3
b1010000010100100 =
b101 >
b10100000100100 ?
b10 C
b1 D
b10100000100100 E
b100 J
#800000
0&
0(
#810000
1&
1(
b100100 -
b111100000001100111111111111111 5
b11001 F
b110100 I
b110 J
b1010000010100100 N
b110100 R
#820000
0&
0(
#830000
b110100 !
b11001 "
b11 #
b10000 $
1&
1(
b111100000001100111111111111111 4
b10000 =
b111 J
b11111111 M
#840000
0&
0(
#850000
b0 #
b110100 $
1&
1(
b0 6
b110100 =
1@
b1000100 J
b10000 N
b10000 O
b101 P
#860000
0&
0(
#870000
b10100 !
b10100 $
1&
1(
b10100 =
0@
1H
b1000101 J
b1 P
b10000 X
#880000
0&
0(
#890000
1&
1(
b0 J
#900000
0&
0(
#910000
b100 "
b1 #
b11000 $
1&
1(
b1001 6
b11000 =
0H
b1 J
b11100011 O
b11101 P
#920000
0&
0(
#930000
1&
1(
1<
b10 J
#940000
0&
0(
#950000
b11000 !
b11100 $
1&
1(
1/
b11000 0
b11000 ;
0<
b11100 =
b11 J
#960000
0&
0(
#970000
b11111111111111100 "
b100000000000010100 $
b111111111111111 %
1&
1(
b111111 ,
0/
b110011111111111111100 1
b1111111111111110000000000000000 3
b1111 9
b100000000000010100 =
b1111 >
b111111111111111 ?
b0 C
b110 D
b111111111111111 E
b100 J
#980000
0&
0(
#990000
1&
1(
b111111 -
b100000110001110111111111111111 5
b0 F
b0 I
b110 J
b100000000000010100 N
b0 R
#1000000
0&
0(
#1010000
b0 !
b111111111111111 "
b0 #
b0 $
1&
1(
b100000110001110111111111111111 4
b110 6
b0 =
1@
1H
b1000100 J
b1111111111111110000000000000000 O
b110 P
#1020000
0&
0(
#1030000
b11000 !
b0 "
b11000 $
1&
1(
b0 6
b11000 =
0@
0H
b1000101 J
b100000000000010100 O
b1111111111111110000000000000000 Y
#1040000
0&
0(
#1050000
b1111111111111110000000000000000 "
1&
1(
1H
b0 J
#1060000
0&
0(
#1070000
b100 "
b1 #
b11100 $
1&
1(
b1001 6
b11100 =
0H
b1 J
b11100011 O
b11101 P
#1080000
0&
0(
#1090000
1&
1(
1<
b10 J
#1100000
0&
0(
#1110000
b11100 !
b100000 $
1&
1(
1/
b11100 0
b11100 ;
0<
b100000 =
b11 J
#1120000
0&
0(
#1130000
b11111111111111100 "
b100000000000011000 $
1&
1(
0/
b11000111011111111111111100 1
b1000 9
b100000000000011000 =
b110 C
b111 D
b100 J
#1140000
0&
0(
#1150000
1&
1(
b100000111001110000000000000001 5
b1111111111111110000000000000000 I
b110 J
b100000000000011000 N
b1111111111111110000000000000000 R
#1160000
0&
0(
#1170000
b1111111111111110000000000000000 !
b111111111111111 "
b1111111111111110111111111111111 $
1&
1(
b100000111001110000000000000001 4
b1111111111111110111111111111111 =
b1000 J
b1 M
#1180000
0&
0(
#1190000
b0 "
b0 #
b1111111111111110000000000000000 $
1&
1(
b0 6
b1111111111111110000000000000000 =
1@
b1000100 J
b1111111111111110111111111111111 N
b1111111111111110111111111111111 O
b111 P
#1200000
0&
0(
#1210000
b11100 !
b11100 $
1&
1(
b11100 =
0@
b1000101 J
b1111111111111110111111111111111 Z
#1220000
0&
0(
#1230000
b1111111111111110111111111111111 "
1&
1(
b11111 F
1H
b0 J
#1240000
0&
0(
#1250000
b100 "
b1 #
b100000 $
1&
1(
b1001 6
b100000 =
0H
b1 J
b11100011 O
b11101 P
#1260000
0&
0(
#1270000
1&
1(
1<
b10 J
#1280000
0&
0(
#1290000
b100000 !
b100100 $
1&
1(
1/
b100000 0
b100000 ;
0<
b100100 =
b11 J
#1300000
0&
0(
#1310000
b1 %
1&
1(
b1 ,
0/
b11100111000000000000000100 1
b10000000000000000 3
b0 >
b1 ?
b111 C
b1 E
b100 J
#1320000
0&
0(
#1330000
1&
1(
b1 -
b100000111001110111111111111111 5
b1111111111111110111111111111111 I
b110 J
b100100 N
b1111111111111110111111111111111 R
#1340000
0&
0(
#1350000
b1111111111111110111111111111111 !
b1 "
b1111111111111111000000000000000 $
1&
1(
b100000111001110111111111111111 4
b1111111111111111000000000000000 =
b1000 J
b11111111 M
#1360000
0&
0(
#1370000
b1111111111111110111111111111111 "
b0 #
b1111111111111110111111111111111 $
1&
1(
b0 6
b1111111111111110111111111111111 =
1@
1H
b1000100 J
b1111111111111111000000000000000 N
b1111111111111111000000000000000 O
b111 P
#1380000
0&
0(
#1390000
b100000 !
b100000 $
1&
1(
b100000 =
0@
b1000101 J
b1111111111111111000000000000000 Z
#1400000
0&
0(
#1410000
b1111111111111111000000000000000 "
1&
1(
b0 F
b1111111111111111000000000000000 I
b0 J
b1111111111111111000000000000000 R
#1420000
0&
0(
#1430000
b100 "
b1 #
b100100 $
1&
1(
b1001 6
b100100 =
0H
b1 J
b11100011 O
b11101 P
#1440000
0&
0(
#1450000
1&
1(
1<
b10 J
#1460000
0&
0(
#1470000
b100100 !
b101000 $
1&
1(
1/
b100100 0
b100100 ;
0<
b101000 =
b11 J
#1480000
0&
0(
#1490000
b11111111111111100 "
b100000000000100000 $
b111111111111111 %
1&
1(
b111111 ,
0/
b11100111011111111111111100 1
b1111111111111110000000000000000 3
b100000000000100000 =
b1111 >
b111111111111111 ?
b111111111111111 E
b100 J
#1500000
0&
0(
#1510000
1&
1(
b111111 -
b100100111010000000000000000001 5
b110 J
b100000000000100000 N
#1520000
0&
0(
#1530000
b1111111111111111000000000000000 !
b111111111111111 "
b1111111111111111111111111111111 $
1&
1(
b100100111010000000000000000001 4
b1111111111111111111111111111111 =
b1000 J
b1 M
#1540000
0&
0(
#1550000
b1111111111111111000000000000000 "
b0 #
b1111111111111111000000000000000 $
1&
1(
b0 6
b1111111111111111000000000000000 =
1@
1H
b1000100 J
b1111111111111111111111111111111 N
b1111111111111111111111111111111 O
b111 P
#1560000
0&
0(
#1570000
b100100 !
b100100 $
1&
1(
b100100 =
0@
b1000101 J
b1111111111111111111111111111111 Z
#1580000
0&
0(
#1590000
b1111111111111111111111111111111 "
1&
1(
b11111 F
b1111111111111111111111111111111 I
b0 J
b1111111111111111111111111111111 R
#1600000
0&
0(
#1610000
b100 "
b1 #
b101000 $
1&
1(
b1001 6
b101000 =
0H
b1 J
b11100011 O
b11101 P
#1620000
0&
0(
#1630000
1&
1(
1<
b10 J
#1640000
0&
0(
#1650000
b101000 !
b101100 $
1&
1(
1/
b101000 0
b101000 ;
0<
b101100 =
b11 J
#1660000
0&
0(
#1670000
b1 %
1&
1(
b1 ,
0/
b11101000000000000000000100 1
b10000000000000000 3
b1001 9
b0 >
b1 ?
b1000 D
b1 E
b100 J
#1680000
0&
0(
#1690000
1&
1(
b1 -
b100000000010010111111111111111 5
b0 F
b110 J
b101100 N
#1700000
0&
0(
#1710000
b1111111111111111111111111111111 !
b1 "
b10000000000000000000000000000000 $
1&
1(
b100000000010010111111111111111 4
1:
b10000000000000000000000000000000 =
b1000 J
b11111111 M
#1720000
0&
0(
#1730000
b0 "
b0 #
b1111111111111111111111111111111 $
1&
1(
b0 6
0:
b1111111111111111111111111111111 =
1@
b1000100 J
b10000000000000000000000000000000 N
b10000000000000000000000000000000 O
b1000 P
#1740000
0&
0(
#1750000
b101000 !
b101000 $
1&
1(
b101000 =
0@
b1000101 J
b10000000000000000000000000000000 [
#1760000
0&
0(
#1770000
b10000000000000000000000000000000 "
1&
1(
1:
b0 J
#1780000
0&
0(
#1790000
b100 "
b1 #
b101100 $
1&
1(
b1001 6
0:
b101100 =
b1 J
b11100011 O
b11101 P
#1800000
0&
0(
#1810000
1&
1(
1<
b10 J
#1820000
0&
0(
#1830000
b101100 !
b110000 $
1&
1(
1/
b101100 0
b101100 ;
0<
b110000 =
b11 J
#1840000
0&
0(
#1850000
b11111111111111100 "
b100000000000101000 $
b111111111111111 %
1&
1(
b111111 ,
0/
b1001011111111111111100 1
b1111111111111110000000000000000 3
b1000 9
b100000000000101000 =
b1111 >
b111111111111111 ?
b0 C
b1001 D
b111111111111111 E
b100 J
#1860000
0&
0(
#1870000
1&
1(
b111111 -
b100001001010010111111111111111 5
b0 I
b110 J
b100000000000101000 N
b0 R
#1880000
0&
0(
#1890000
b0 !
b111111111111111 "
b111111111111111 $
1&
1(
b100001001010010111111111111111 4
b111111111111111 =
b1000 J
#1900000
0&
0(
#1910000
b0 "
b0 #
b0 $
1&
1(
b0 6
b0 =
1@
1H
b1000100 J
b111111111111111 N
b111111111111111 O
b1001 P
#1920000
0&
0(
#1930000
b101100 !
b101100 $
1&
1(
b101100 =
0@
0H
b1000101 J
b111111111111111 \
#1940000
0&
0(
#1950000
b111111111111111 "
1&
1(
b11111 F
1H
b0 J
#1960000
0&
0(
#1970000
b100 "
b1 #
b110000 $
1&
1(
b1001 6
b110000 =
0H
b1 J
b11100011 O
b11101 P
#1980000
0&
0(
#1990000
1&
1(
1<
b10 J
#2000000
0&
0(
#2010000
b110000 !
b110100 $
1&
1(
1/
b110000 0
b110000 ;
0<
b110100 =
b11 J
#2020000
0&
0(
#2030000
b11111111111111100 "
b100000000000101100 $
1&
1(
0/
b100101001011111111111111100 1
b100000000000101100 =
b1001 C
b100 J
#2040000
0&
0(
#2050000
1&
1(
b100001001010010000000000000001 5
b111111111111111 I
b110 J
b100000000000101100 N
b111111111111111 R
#2060000
0&
0(
#2070000
b111111111111111 !
b111111111111111 "
b1111111111111110 $
1&
1(
b100001001010010000000000000001 4
b1111111111111110 =
b1000 J
b1 M
#2080000
0&
0(
#2090000
b0 #
b111111111111111 $
1&
1(
b0 6
b111111111111111 =
1@
1H
b1000100 J
b1111111111111110 N
b1111111111111110 O
b1001 P
#2100000
0&
0(
#2110000
b110000 !
b110000 $
1&
1(
b110000 =
0@
b1000101 J
b1111111111111110 \
#2120000
0&
0(
#2130000
b1111111111111110 "
1&
1(
b11110 F
b1111111111111110 I
b0 J
b1111111111111110 R
#2140000
0&
0(
#2150000
b100 "
b1 #
b110100 $
1&
1(
b1001 6
b110100 =
0H
b1 J
b11100011 O
b11101 P
#2160000
0&
0(
#2170000
1&
1(
1<
b10 J
#2180000
0&
0(
#2190000
b110100 !
b111000 $
1&
1(
1/
b110100 0
b110100 ;
0<
b111000 =
b11 J
#2200000
0&
0(
#2210000
b1 %
1&
1(
b1 ,
0/
b100101001000000000000000100 1
b10000000000000000 3
b0 >
b1 ?
b1 E
b100 J
#2220000
0&
0(
#2230000
1&
1(
b1 -
b1001000010000000000011010 5
b110 J
b111000 N
#2240000
0&
0(
#2250000
b1111111111111110 !
b1 "
b1111111111111111 $
1&
1(
b1001000010000000000011010 4
b1111111111111111 =
b1000 J
b11010 M
#2260000
0&
0(
#2270000
b1111111111111110 "
b0 #
b1111111111111110 $
1&
1(
b0 6
b1111111111111110 =
1@
1H
b1000100 J
b1111111111111111 N
b1111111111111111 O
b1001 P
#2280000
0&
0(
#2290000
b110100 !
b110100 $
1&
1(
b110100 =
0@
b1000101 J
b1111111111111111 \
#2300000
0&
0(
#2310000
b1111111111111111 "
1&
1(
b11111 F
b1111111111111111 I
b0 J
b1111111111111111 R
#2320000
0&
0(
#2330000
b100 "
b1 #
b111000 $
1&
1(
b1001 6
b111000 =
0H
b1 J
b11100011 O
b11101 P
#2340000
0&
0(
#2350000
1&
1(
1<
b10 J
#2360000
0&
0(
#2370000
b111000 !
b111100 $
1&
1(
1/
b111000 0
b111000 ;
0<
b111100 =
b11 J
#2380000
0&
0(
#2390000
b1101000 "
b10100000 $
b11010 %
1&
1(
b11010 ,
0/
b100100001000000000001101000 1
b110100000000000000000 3
b0 9
b10100000 =
b11010 ?
b1 D
b11010 E
b100 J
#2400000
0&
0(
#2410000
1&
1(
b11010 -
b101000000010000 5
b11001 F
b110 J
b10100000 N
#2420000
0&
0(
#2430000
1&
1(
b101000000010000 4
b101101 J
b10000 M
#2440000
0&
0(
#2450000
1&
1(
#2460000
0&
0(
#2470000
1&
1(
#2480000
0&
0(
#2490000
1&
1(
#2500000
0&
0(
#2510000
1&
1(
#2520000
0&
0(
#2530000
1&
1(
#2540000
0&
0(
#2550000
1&
1(
#2560000
0&
0(
#2570000
1&
1(
#2580000
0&
0(
#2590000
1&
1(
#2600000
0&
0(
#2610000
1&
1(
#2620000
0&
0(
#2630000
1&
1(
#2640000
0&
0(
#2650000
1&
1(
#2660000
0&
0(
#2670000
1&
1(
#2680000
0&
0(
#2690000
1&
1(
#2700000
0&
0(
#2710000
1&
1(
#2720000
0&
0(
#2730000
1&
1(
#2740000
0&
0(
#2750000
1&
1(
#2760000
0&
0(
#2770000
1&
1(
#2780000
0&
0(
#2790000
1&
1(
#2800000
0&
0(
#2810000
1&
1(
#2820000
0&
0(
#2830000
1&
1(
#2840000
0&
0(
#2850000
1&
1(
#2860000
0&
0(
#2870000
1&
1(
#2880000
0&
0(
#2890000
1&
1(
#2900000
0&
0(
#2910000
1&
1(
#2920000
0&
0(
#2930000
1&
1(
#2940000
0&
0(
#2950000
1&
1(
#2960000
0&
0(
#2970000
1&
1(
#2980000
0&
0(
#2990000
1&
1(
#3000000
0&
0(
#3010000
1&
1(
#3020000
0&
0(
#3030000
1&
1(
#3040000
0&
0(
#3050000
1&
1(
#3060000
0&
0(
#3070000
1&
1(
1*
#3080000
0&
0(
#3090000
1&
1(
b101110 J
#3100000
0&
0(
#3110000
1&
1(
b1000100 J
#3120000
0&
0(
#3130000
b11001 "
b0 #
b111000 $
1&
1(
b1010 .
b101000111101 2
b0 6
b111000 =
b1000101 J
b10100000 O
b1 P
#3140000
0&
0(
#3150000
1&
1(
b0 J
#3160000
0&
0(
#3170000
b100 "
b1 #
b111100 $
1&
1(
b1001 6
b111100 =
b1 J
b11100011 O
b11101 P
#3180000
0&
0(
#3190000
1&
1(
1<
b10 J
#3200000
0&
0(
#3210000
b111100 !
b1000000 $
1&
1(
1/
b111100 0
b111100 ;
0<
b1000000 =
b11 J
#3220000
0&
0(
#3230000
b10100000001000000 "
b10100000001111100 $
b101000000010000 %
1&
1(
b10000 ,
0/
b10100000001000000 1
b1010000000100000000000000000000 3
b10100000001111100 =
b1010 >
b101000000010000 ?
b0 C
b0 D
b101000000010000 E
b100 J
#3240000
0&
0(
#3250000
1&
1(
b10000 -
b101100000010010 5
b0 F
b0 I
b110 J
b10100000001111100 N
b0 R
#3260000
0&
0(
#3270000
1&
1(
b101100000010010 4
b10 6
1@
b1000100 J
b10010 M
b1010 O
b1010 P
#3280000
0&
0(
#3290000
b0 "
b0 #
b111100 $
1&
1(
b0 6
b111100 =
0@
b1000101 J
b10100000001111100 O
b0 P
b1010 ]
#3300000
0&
0(
#3310000
1&
1(
b0 J
#3320000
0&
0(
#3330000
b100 "
b1 #
b1000000 $
1&
1(
b1001 6
b1000000 =
b1 J
b11100011 O
b11101 P
#3340000
0&
0(
#3350000
1&
1(
1<
b10 J
#3360000
0&
0(
#3370000
b1000000 !
b1000100 $
1&
1(
1/
b1000000 0
b1000000 ;
0<
b1000100 =
b11 J
#3380000
0&
0(
#3390000
b10110000001001000 "
b10110000010001000 $
b101100000010010 %
1&
1(
b10010 ,
0/
b10110000001001000 1
b1011000000100100000000000000000 3
b10110000010001000 =
b1011 >
b101100000010010 ?
b101100000010010 E
b100 J
#3400000
0&
0(
#3410000
1&
1(
b10010 -
b110010110000000000011000 5
b110 J
b10110000010001000 N
#3420000
0&
0(
#3430000
1&
1(
b110010110000000000011000 4
b11 6
1@
b1000100 J
b11000 M
b101000111101 O
b1011 P
#3440000
0&
0(
#3450000
b0 "
b0 #
b1000000 $
1&
1(
b0 6
b1000000 =
0@
b1000101 J
b10110000010001000 O
b0 P
b101000111101 ^
#3460000
0&
0(
#3470000
1&
1(
b0 J
#3480000
0&
0(
#3490000
b100 "
b1 #
b1000100 $
1&
1(
b1001 6
b1000100 =
b1 J
b11100011 O
b11101 P
#3500000
0&
0(
#3510000
1&
1(
1<
b10 J
#3520000
0&
0(
#3530000
b1000100 !
b1001000 $
1&
1(
1/
b1000100 0
b1000100 ;
0<
b1001000 =
b11 J
#3540000
0&
0(
#3550000
b1100000 "
b10100100 $
b11000 %
1&
1(
b11000 ,
0/
b11001011000000000001100000 1
b110000000000000000000 3
b10100100 =
b0 >
b11000 ?
b110 C
b1011 D
b11000 E
b100 J
#3560000
0&
0(
#3570000
1&
1(
b11000 -
b110000000010000 5
b11101 F
b1111111111111110000000000000000 I
b110 J
b10100100 N
b1111111111111110000000000000000 R
#3580000
0&
0(
#3590000
1&
1(
b110000000010000 4
b101011 J
b10000 M
#3600000
0&
0(
#3610000
1&
1(
#3620000
0&
0(
#3630000
1&
1(
#3640000
0&
0(
#3650000
1&
1(
#3660000
0&
0(
#3670000
1&
1(
#3680000
0&
0(
#3690000
1&
1(
#3700000
0&
0(
#3710000
1&
1(
#3720000
0&
0(
#3730000
1&
1(
#3740000
0&
0(
#3750000
1&
1(
#3760000
0&
0(
#3770000
1&
1(
#3780000
0&
0(
#3790000
1&
1(
#3800000
0&
0(
#3810000
1&
1(
#3820000
0&
0(
#3830000
1&
1(
#3840000
0&
0(
#3850000
1&
1(
#3860000
0&
0(
#3870000
1&
1(
#3880000
0&
0(
#3890000
1&
1(
#3900000
0&
0(
#3910000
1&
1(
#3920000
0&
0(
#3930000
1&
1(
#3940000
0&
0(
#3950000
1&
1(
#3960000
0&
0(
#3970000
1&
1(
#3980000
0&
0(
#3990000
1&
1(
#4000000
0&
0(
#4010000
1&
1(
#4020000
0&
0(
#4030000
1&
1(
#4040000
0&
0(
#4050000
1&
1(
#4060000
0&
0(
#4070000
1&
1(
#4080000
0&
0(
#4090000
1&
1(
#4100000
0&
0(
#4110000
1&
1(
#4120000
0&
0(
#4130000
1&
1(
#4140000
0&
0(
#4150000
1&
1(
#4160000
0&
0(
#4170000
1&
1(
#4180000
0&
0(
#4190000
1&
1(
#4200000
0&
0(
#4210000
1&
1(
#4220000
0&
0(
#4230000
1&
1(
17
#4240000
0&
0(
#4250000
1&
1(
b101100 J
#4260000
0&
0(
#4270000
1&
1(
b1000100 J
#4280000
0&
0(
#4290000
b101000111101 "
b0 #
b1000100 $
1&
1(
b10100011110 .
b1110101110000110000000000000000 2
b0 6
b1000100 =
1H
b1000101 J
b10100100 O
b1011 P
#4300000
0&
0(
#4310000
1&
1(
b0 J
#4320000
0&
0(
#4330000
b100 "
b1 #
b1001000 $
1&
1(
b1001 6
b1001000 =
0H
b1 J
b11100011 O
b11101 P
#4340000
0&
0(
#4350000
1&
1(
1<
b10 J
#4360000
0&
0(
#4370000
b1001000 !
b1001100 $
1&
1(
1/
b1001000 0
b1001000 ;
0<
b1001100 =
b11 J
#4380000
0&
0(
#4390000
b11000000001000000 "
b11000000010001000 $
b110000000010000 %
1&
1(
b10000 ,
0/
b11000000001000000 1
b1100000000100000000000000000000 3
b11000000010001000 =
b1100 >
b110000000010000 ?
b0 C
b0 D
b110000000010000 E
b100 J
#4400000
0&
0(
#4410000
1&
1(
b10000 -
b110100000010010 5
b0 F
b0 I
b110 J
b11000000010001000 N
b0 R
#4420000
0&
0(
#4430000
1&
1(
b110100000010010 4
b10 6
1@
b1000100 J
b10010 M
b10100011110 O
b1100 P
#4440000
0&
0(
#4450000
b0 "
b0 #
b1001000 $
1&
1(
b0 6
b1001000 =
0@
b1000101 J
b11000000010001000 O
b0 P
b10100011110 _
#4460000
0&
0(
#4470000
1&
1(
b0 J
#4480000
0&
0(
#4490000
b100 "
b1 #
b1001100 $
1&
1(
b1001 6
b1001100 =
b1 J
b11100011 O
b11101 P
#4500000
0&
0(
#4510000
1&
1(
1<
b10 J
#4520000
0&
0(
#4530000
b1001100 !
b1010000 $
1&
1(
1/
b1001100 0
b1001100 ;
0<
b1010000 =
b11 J
#4540000
0&
0(
