CPUQuartus/mipsHardware.vcd
$comment
Copyright (C) 1991-2010 Altera Corporation
Your use of Altera Corporation's design tools, logic functions 
and other software and tools, and its AMPP partner logic 
functions, and any output files from any of the foregoing 
(including device programming or simulation files), and any 
associated documentation or information are expressly subject 
to the terms and conditions of the Altera Program License 
Subscription Agreement, Altera MegaCore Function License 
Agreement, or other applicable license agreement, including, 
without limitation, that your use is for the sole purpose of 
programming logic devices manufactured by Altera and sold by 
Altera or its authorized distributors.  Please refer to the 
applicable agreement for further details.
$end

$date 
  10/18/2019 13:37:49 
$end
$version 
 QUARTUS_VCD_EXPORT 1.0 
$end
$timescale
  1 ps
$end
$scope module schemeHard $end
$var reg 32 ! aluAOut[31:0] $end
$var reg 32 " aluBOut[31:0] $end
$var reg 3 # alucontrol[2:0] $end
$var reg 32 $ aluresult[31:0] $end
$var reg 16 % bSExtended[15:0] $end
$var reg 1 & clk $end
$var reg 2 ' controlLS[1:0] $end
$var reg 1 ( debug $end
$var reg 6 ) funct[5:0] $end
$var reg 6 * functOut[5:0] $end
$var reg 1 + instControl $end
$var reg 32 , IORDout[31:0] $end
$var reg 32 - j[31:0] $end
$var reg 32 . LuiOut[31:0] $end
$var reg 32 / MDROut[31:0] $end
$var reg 32 0 memoriaOut[31:0] $end
$var reg 4 1 memtoRegmux[3:0] $end
$var reg 1 2 muxXCHG $end
$var reg 6 3 opcodeW[5:0] $end
$var reg 32 4 pcOut[31:0] $end
$var reg 1 5 pcWriteS $end
$var reg 32 6 pcWriteSource[31:0] $end
$var reg 5 7 rd[4:0] $end
$var reg 16 8 rdshf[15:0] $end
$var reg 1 9 RegWriteC $end
$var reg 1 : reset $end
$var reg 1 ; resetD2 $end
$var reg 5 < rs[4:0] $end
$var reg 5 = rt[4:0] $end
$var reg 32 > sExtended[31:0] $end
$var reg 5 ? shift[4:0] $end
$var reg 32 @ shiftOut[31:0] $end
$var reg 1 A sltOut $end
$var reg 32 B SourceSh[31:0] $end
$var reg 7 C stateOut[6:0] $end
$var reg 32 D storeOUT[31:0] $end
$var reg 1 E storeWr $end
$var reg 32 F ulaOut_t[31:0] $end
$var reg 32 G wrData[31:0] $end
$var reg 5 H wrReg[4:0] $end
$var reg 32 I xCHG[31:0] $end
$var reg 32 J xchgOUT[31:0] $end
$scope module inst6 $end
$var reg 32 K Reg6[31:0] $end
$var reg 32 L Reg17[31:0] $end
$var reg 32 M Reg15[31:0] $end
$upscope $end
$upscope $end
$enddefinitions $end
#0
$dumpvars
b0 !
b0 "
b0 #
b0 $
b0 %
0&
b0 '
0(
b0 )
b0 *
0+
b0 ,
b0 -
b0 .
b0 /
b0 0
b0 1
02
b0 3
b0 4
05
b0 6
b0 7
b0 8
09
0:
0;
b0 <
b0 =
b0 >
b0 ?
b0 @
1A
b0 B
b0 C
bX D
0E
b0 F
b0 G
b0 H
b0 I
b0 J
b0 K
b0 L
b0 M
$end
#10000
b100 "
b1 #
b100 $
1&
1(
b1001 1
b100 6
0A
b1 C
b11100011 G
b11101 H
#20000
0&
0(
#30000
1&
1(
b100000000100010000001010011010 0
15
b10 C
#40000
0&
0(
#50000
b100 !
b1000 $
1&
1(
1+
b100 ,
b100000000100010000001010011010 /
b100 4
05
b1000 6
b11 C
#60000
0&
0(
#70000
b101001101000 "
b101001101100 $
b1010011010 %
1&
1(
b11010 )
0+
b10001000000101001101000 -
b10100110100000000000000000 .
b1000 3
b101001101100 6
b1010011010 8
b10001 =
b1010011010 >
b100 C
#80000
0&
0(
#90000
1&
1(
b11010 *
b100000000011110000000001100011 0
b110 C
b101001101100 F
#100000
0&
0(
#110000
b0 !
b1010011010 "
b1010011010 $
1&
1(
b100000000011110000000001100011 /
b1010011010 6
b1000 C
#120000
0&
0(
#130000
b0 "
b0 #
b0 $
1&
1(
b0 1
b0 6
19
1A
b1000100 C
b1010011010 F
b1010011010 G
b10001 H
#140000
0&
0(
#150000
b100 !
b100 $
1&
1(
b100 6
09
0A
b1000101 C
b1010011010 L
#160000
0&
0(
#170000
b1010011010 "
1&
1(
b11010 ?
1A
b0 C
#180000
0&
0(
#190000
b100 "
b1 #
b1000 $
1&
1(
b1001 1
b1000 6
0A
b1 C
b11100011 G
b11101 H
#200000
0&
0(
#210000
1&
1(
15
b10 C
#220000
0&
0(
#230000
b1000 !
b1100 $
1&
1(
1+
b1000 ,
b1000 4
05
b1100 6
b11 C
#240000
0&
0(
#250000
b110001100 "
b110010100 $
b1100011 %
1&
1(
b100011 )
0+
b1111000000000110001100 -
b11000110000000000000000 .
b110010100 6
b1100011 8
b1111 =
b1100011 >
b100 C
#260000
0&
0(
#270000
1&
1(
b100011 *
b100000000001100001101100111001 0
b0 ?
b110 C
b110010100 F
#280000
0&
0(
#290000
b0 !
b1100011 "
b1100011 $
1&
1(
b100000000001100001101100111001 /
b1100011 6
b1000 C
#300000
0&
0(
#310000
b0 "
b0 #
b0 $
1&
1(
b0 1
b0 6
19
1A
b1000100 C
b1100011 F
b1100011 G
b1111 H
#320000
0&
0(
#330000
b1000 !
b1000 $
1&
1(
b1000 6
09
0A
b1000101 C
b1100011 M
#340000
0&
0(
#350000
b1100011 "
1&
1(
b11 ?
1A
b0 C
#360000
0&
0(
#370000
b100 "
b1 #
b1100 $
1&
1(
b1001 1
b1100 6
0A
b1 C
b11100011 G
b11101 H
#380000
0&
0(
#390000
1&
1(
15
b10 C
#400000
0&
0(
#410000
b1100 !
b10000 $
1&
1(
1+
b1100 ,
b1100 4
05
b10000 6
b11 C
#420000
0&
0(
#430000
b110110011100100 "
b110110011110000 $
b1101100111001 %
1&
1(
b111001 )
0+
b110000110110011100100 -
b11011001110010000000000000000 .
b110110011110000 6
b11 7
b1101100111001 8
b110 =
b1101100111001 >
b100 C
#440000
0&
0(
#450000
1&
1(
b111001 *
b10101101111100010000000000000000 0
b0 ?
b110 C
b110110011110000 F
#460000
0&
0(
#470000
b0 !
b1101100111001 "
b1101100111001 $
1&
1(
b10101101111100010000000000000000 /
b1101100111001 6
b1000 C
#480000
0&
0(
#490000
b0 "
b0 #
b0 $
1&
1(
b0 1
b0 6
19
1A
b1000100 C
b1101100111001 F
b1101100111001 G
b110 H
#500000
0&
0(
#510000
b1100 !
b1100 $
1&
1(
b1100 6
09
0A
b1000101 C
b1101100111001 K
#520000
0&
0(
#530000
b1101100111001 "
1&
1(
b11001 ?
1A
b0 C
#540000
0&
0(
#550000
b100 "
b1 #
b10000 $
1&
1(
b1001 1
b10000 6
0A
b1 C
b11100011 G
b11101 H
#560000
0&
0(
#570000
1&
1(
15
b10 C
#580000
0&
0(
#590000
b10000 !
b10100 $
1&
1(
1+
b10000 ,
b10000 4
05
b10100 6
b11 C
#600000
0&
0(
#610000
b0 "
b10000 $
b0 %
1&
1(
b0 )
0+
b111110001000000000000000000 -
b0 .
b101011 3
b10000 6
b0 7
b0 8
b1111 <
b10001 =
b0 >
b100 C
#620000
0&
0(
#630000
1&
1(
b0 *
b101111001101111111111111100 0
b11010 ?
b1100011 B
b110 C
b10000 F
b1100011 J
#640000
0&
0(
#650000
b1100011 !
b1100011 $
1&
1(
b1100011 ,
b101111001101111111111111100 /
b110 1
b1100011 6
b100010 C
b0 G
b10001 H
#660000
0&
0(
#670000
1&
1(
b0 1
b100011 C
b1100011 F
b1100011 G
#680000
0&
0(
#690000
1&
1(
b0 0
b1000100 C
b1010011010 D
1E
#700000
0&
0(
#710000
b10000 !
b1010011010 "
b0 #
b10000 $
1&
1(
b10000 ,
b0 /
b10000 6
1A
b1000101 C
0E
#720000
0&
0(
#730000
1&
1(
b1010011010 0
b0 C
#740000
0&
0(
#750000
b100 "
b1 #
b10100 $
1&
1(
b1010011010 /
b101111001101111111111111100 0
b1001 1
b10100 6
0A
b1 C
b11100011 G
b11101 H
#760000
0&
0(
#770000
1&
1(
b101111001101111111111111100 /
15
b10 C
#780000
0&
0(
#790000
b10100 !
b11000 $
1&
1(
1+
b10100 ,
b10100 4
05
b11000 6
b11 C
#800000
0&
0(
#810000
b11111111111111111111111111110000 "
b100 $
b1111111111111100 %
1&
1(
b111100 )
0+
b111100110111111111111110000 -
b11111111111111000000000000000000 .
b1 3
b100 6
b11111 7
b1111111111111100 8
b110 =
b11111111111111111111111111111100 >
b100 C
#820000
0&
0(
#830000
1&
1(
b111100 *
b100000000100011111111111111111 0
b11001 ?
b110 C
b100 F
#840000
0&
0(
#850000
b1100011 !
b1101100111001 "
b0 #
b1100011 $
1&
1(
b1100011 ,
b100000000100011111111111111111 /
15
1A
b101000 C
#860000
0&
0(
#870000
1&
1(
b100 4
05
b1100011 6
b101001 C
#880000
0&
0(
#890000
1&
1(
b1010011010 0
b101010 C
#900000
0&
0(
#910000
b1010011010 !
b111 #
b0 $
1&
1(
b0 ,
b1010011010 /
15
b0 6
b1000100 C
#920000
0&
0(
#930000
b0 !
b0 #
1&
1(
b0 1
b0 4
05
b1000101 C
b100 G
b110 H
#940000
0&
0(
#950000
1&
1(
b100000000100010000001010011010 0
b0 C
#960000
0&
0(
#970000
b100 "
b1 #
b100 $
1&
1(
b100000000100010000001010011010 /
b1001 1
b100 6
0A
b1 C
b11100011 G
b11101 H
#980000
0&
0(
#990000
1&
1(
15
b10 C
#1000000
0&
0(
#1010000
b100 !
b1000 $
1&
1(
1+
b100 ,
b100 4
05
b1000 6
b11 C
#1020000
0&
0(
#1030000
b101001101000 "
b101001101100 $
b1010011010 %
1&
1(
b11010 )
0+
b10001000000101001101000 -
b10100110100000000000000000 .
b1000 3
b101001101100 6
b0 7
b1010011010 8
b0 <
b10001 =
b1010011010 >
b100 C
#1040000
0&
0(
#1050000
1&
1(
b11010 *
b100000000011110000000001100011 0
b11010 ?
b0 B
b110 C
b101001101100 F
b0 J
#1060000
0&
0(
#1070000
b0 !
b1010011010 "
b1010011010 $
1&
1(
b100000000011110000000001100011 /
b1010011010 6
b1000 C
#1080000
0&
0(
#1090000
b0 #
b0 $
1&
1(
b0 1
b0 6
19
1A
b1000100 C
b1010011010 F
b1010011010 G
b10001 H
#1100000
0&
0(
#1110000
b100 !
b100 $
1&
1(
b100 6
09
b1000101 C
#1120000
0&
0(
#1130000
1&
1(
b0 C
#1140000
0&
0(
#1150000
b100 "
b1 #
b1000 $
1&
1(
b1001 1
b1000 6
0A
b1 C
b11100011 G
b11101 H
#1160000
0&
0(
#1170000
1&
1(
15
b10 C
#1180000
0&
0(
#1190000
b1000 !
b1100 $
1&
1(
1+
b1000 ,
b1000 4
05
b1100 6
b11 C
#1200000
0&
0(
#1210000
b110001100 "
b110010100 $
b1100011 %
1&
1(
b100011 )
0+
b1111000000000110001100 -
b11000110000000000000000 .
b110010100 6
b1100011 8
b1111 =
b1100011 >
b100 C
#1220000
0&
0(
#1230000
1&
1(
b100011 *
b100000000001100001101100111001 0
b11 ?
b110 C
b110010100 F
#1240000
0&
0(
#1250000
b0 !
b1100011 "
b1100011 $
1&
1(
b100000000001100001101100111001 /
b1100011 6
b1000 C
#1260000
0&
0(
#1270000
b0 #
b0 $
1&
1(
b0 1
b0 6
19
1A
b1000100 C
b1100011 F
b1100011 G
b1111 H
#1280000
0&
0(
#1290000
b1000 !
b1000 $
1&
1(
b1000 6
09
b1000101 C
#1300000
0&
0(
#1310000
1&
1(
b0 C
#1320000
0&
0(
#1330000
b100 "
b1 #
b1100 $
1&
1(
b1001 1
b1100 6
0A
b1 C
b11100011 G
b11101 H
#1340000
0&
0(
#1350000
1&
1(
15
b10 C
#1360000
0&
0(
#1370000
b1100 !
b10000 $
1&
1(
1+
b1100 ,
b1100 4
05
b10000 6
b11 C
#1380000
0&
0(
#1390000
b110110011100100 "
b110110011110000 $
b1101100111001 %
1&
1(
b111001 )
0+
b110000110110011100100 -
b11011001110010000000000000000 .
b110110011110000 6
b11 7
b1101100111001 8
b110 =
b1101100111001 >
b100 C
#1400000
0&
0(
#1410000
1&
1(
b111001 *
b10101101111100010000000000000000 0
b11001 ?
b110 C
b110110011110000 F
#1420000
0&
0(
#1430000
b0 !
b1101100111001 "
b1101100111001 $
1&
1(
b10101101111100010000000000000000 /
b1101100111001 6
b1000 C
#1440000
0&
0(
#1450000
b0 #
b0 $
1&
1(
b0 1
b0 6
19
1A
b1000100 C
b1101100111001 F
b1101100111001 G
b110 H
#1460000
0&
0(
#1470000
b1100 !
b1100 $
1&
1(
b1100 6
09
b1000101 C
#1480000
0&
0(
#1490000
1&
1(
b0 C
#1500000
0&
0(
#1510000
b100 "
b1 #
b10000 $
1&
1(
b1001 1
b10000 6
0A
b1 C
b11100011 G
b11101 H
#1520000
0&
0(
#1530000
1&
1(
15
b10 C
#1540000
0&
0(
#1550000
b10000 !
b10100 $
1&
1(
1+
b10000 ,
b10000 4
05
b10100 6
b11 C
#1560000
0&
0(
#1570000
b0 "
b10000 $
b0 %
1&
1(
b0 )
0+
b111110001000000000000000000 -
b0 .
b101011 3
b10000 6
b0 7
b0 8
b1111 <
b10001 =
b0 >
b100 C
#1580000
0&
0(
#1590000
1&
1(
b0 *
b101111001101111111111111100 0
b11010 ?
b1100011 B
b110 C
b10000 F
b1100011 J
#1600000
0&
0(
#1610000
b1100011 !
b1100011 $
1&
1(
b1100011 ,
b101111001101111111111111100 /
b110 1
b1100011 6
b100010 C
b0 G
b10001 H
#1620000
0&
0(
#1630000
1&
1(
b0 1
b100011 C
b1100011 F
b1100011 G
#1640000
0&
0(
#1650000
1&
1(
b1010011010 0
b1000100 C
1E
#1660000
0&
0(
#1670000
b10000 !
b1010011010 "
b0 #
b10000 $
1&
1(
b10000 ,
b1010011010 /
b10000 6
1A
b1000101 C
0E
#1680000
0&
0(
#1690000
1&
1(
b0 C
#1700000
0&
0(
#1710000
b100 "
b1 #
b10100 $
1&
1(
b101111001101111111111111100 0
b1001 1
b10100 6
0A
b1 C
b11100011 G
b11101 H
#1720000
0&
0(
#1730000
1&
1(
b101111001101111111111111100 /
15
b10 C
#1740000
0&
0(
#1750000
b10100 !
b11000 $
1&
1(
1+
b10100 ,
b10100 4
05
b11000 6
b11 C
#1760000
0&
0(
#1770000
b11111111111111111111111111110000 "
b100 $
b1111111111111100 %
1&
1(
b111100 )
0+
b111100110111111111111110000 -
b11111111111111000000000000000000 .
b1 3
b100 6
b11111 7
b1111111111111100 8
b110 =
b11111111111111111111111111111100 >
b100 C
#1780000
0&
0(
#1790000
1&
1(
b111100 *
b100000000100011111111111111111 0
b11001 ?
b110 C
b100 F
#1800000
0&
0(
#1810000
b1100011 !
b1101100111001 "
b0 #
b1100011 $
1&
1(
b1100011 ,
b100000000100011111111111111111 /
15
1A
b101000 C
#1820000
0&
0(
#1830000
1&
1(
b100 4
05
b1100011 6
b101001 C
#1840000
0&
0(
#1850000
1&
1(
b1010011010 0
b101010 C
#1860000
0&
0(
#1870000
b1010011010 !
b111 #
b0 $
1&
1(
b0 ,
b1010011010 /
15
b0 6
b1000100 C
#1880000
0&
0(
#1890000
b0 !
b0 #
1&
1(
b0 1
b0 4
05
b1000101 C
b100 G
b110 H
#1900000
0&
0(
#1910000
1&
1(
b100000000100010000001010011010 0
b0 C
#1920000
0&
0(
#1930000
b100 "
b1 #
b100 $
1&
1(
b100000000100010000001010011010 /
b1001 1
b100 6
0A
b1 C
b11100011 G
b11101 H
#1940000
0&
0(
#1950000
1&
1(
15
b10 C
#1960000
0&
0(
#1970000
b100 !
b1000 $
1&
1(
1+
b100 ,
b100 4
05
b1000 6
b11 C
#1980000
0&
0(
#1990000
b101001101000 "
b101001101100 $
b1010011010 %
1&
1(
b11010 )
0+
b10001000000101001101000 -
b10100110100000000000000000 .
b1000 3
b101001101100 6
b0 7
b1010011010 8
b0 <
b10001 =
b1010011010 >
b100 C
#2000000
0&
0(
#2010000
1&
1(
b11010 *
b100000000011110000000001100011 0
b11010 ?
b0 B
b110 C
b101001101100 F
b0 J
#2020000
0&
0(
#2030000
b0 !
b1010011010 "
b1010011010 $
1&
1(
b100000000011110000000001100011 /
b1010011010 6
b1000 C
#2040000
0&
0(
#2050000
b0 #
b0 $
1&
1(
b0 1
b0 6
19
1A
b1000100 C
b1010011010 F
b1010011010 G
b10001 H
#2060000
0&
0(
#2070000
b100 !
b100 $
1&
1(
b100 6
09
b1000101 C
#2080000
0&
0(
#2090000
1&
1(
b0 C
#2100000
0&
0(
#2110000
b100 "
b1 #
b1000 $
1&
1(
b1001 1
b1000 6
0A
b1 C
b11100011 G
b11101 H
#2120000
0&
0(
#2130000
1&
1(
15
b10 C
#2140000
0&
0(
#2150000
b1000 !
b1100 $
1&
1(
1+
b1000 ,
b1000 4
05
b1100 6
b11 C
#2160000
0&
0(
#2170000
b110001100 "
b110010100 $
b1100011 %
1&
1(
b100011 )
0+
b1111000000000110001100 -
b11000110000000000000000 .
b110010100 6
b1100011 8
b1111 =
b1100011 >
b100 C
#2180000
0&
0(
#2190000
1&
1(
b100011 *
b100000000001100001101100111001 0
b11 ?
b110 C
b110010100 F
#2200000
0&
0(
#2210000
b0 !
b1100011 "
b1100011 $
1&
1(
b100000000001100001101100111001 /
b1100011 6
b1000 C
#2220000
0&
0(
#2230000
b0 #
b0 $
1&
1(
b0 1
b0 6
19
1A
b1000100 C
b1100011 F
b1100011 G
b1111 H
#2240000
0&
0(
#2250000
b1000 !
b1000 $
1&
1(
b1000 6
09
b1000101 C
#2260000
0&
0(
#2270000
1&
1(
b0 C
#2280000
0&
0(
#2290000
b100 "
b1 #
b1100 $
1&
1(
b1001 1
b1100 6
0A
b1 C
b11100011 G
b11101 H
#2300000
0&
0(
#2310000
1&
1(
15
b10 C
#2320000
0&
0(
#2330000
b1100 !
b10000 $
1&
1(
1+
b1100 ,
b1100 4
05
b10000 6
b11 C
#2340000
0&
0(
#2350000
b110110011100100 "
b110110011110000 $
b1101100111001 %
1&
1(
b111001 )
0+
b110000110110011100100 -
b11011001110010000000000000000 .
b110110011110000 6
b11 7
b1101100111001 8
b110 =
b1101100111001 >
b100 C
#2360000
0&
0(
#2370000
1&
1(
b111001 *
b10101101111100010000000000000000 0
b11001 ?
b110 C
b110110011110000 F
#2380000
0&
0(
#2390000
b0 !
b1101100111001 "
b1101100111001 $
1&
1(
b10101101111100010000000000000000 /
b1101100111001 6
b1000 C
#2400000
0&
0(
#2410000
b0 #
b0 $
1&
1(
b0 1
b0 6
19
1A
b1000100 C
b1101100111001 F
b1101100111001 G
b110 H
#2420000
0&
0(
#2430000
b1100 !
b1100 $
1&
1(
b1100 6
09
b1000101 C
#2440000
0&
0(
#2450000
1&
1(
b0 C
#2460000
0&
0(
#2470000
b100 "
b1 #
b10000 $
1&
1(
b1001 1
b10000 6
0A
b1 C
b11100011 G
b11101 H
#2480000
0&
0(
#2490000
1&
1(
15
b10 C
#2500000
0&
0(
#2510000
b10000 !
b10100 $
1&
1(
1+
b10000 ,
b10000 4
05
b10100 6
b11 C
#2520000
0&
0(
#2530000
b0 "
b10000 $
b0 %
1&
1(
b0 )
0+
b111110001000000000000000000 -
b0 .
b101011 3
b10000 6
b0 7
b0 8
b1111 <
b10001 =
b0 >
b100 C
#2540000
0&
0(
#2550000
1&
1(
b0 *
b101111001101111111111111100 0
b11010 ?
b1100011 B
b110 C
b10000 F
b1100011 J
#2560000
0&
0(
#2570000
b1100011 !
b1100011 $
1&
1(
b1100011 ,
b101111001101111111111111100 /
b110 1
b1100011 6
b100010 C
b0 G
b10001 H
#2580000
0&
0(
#2590000
1&
1(
b0 1
b100011 C
b1100011 F
b1100011 G
#2600000
0&
0(
#2610000
1&
1(
b1010011010 0
b1000100 C
1E
#2620000
0&
0(
#2630000
b10000 !
b1010011010 "
b0 #
b10000 $
1&
1(
b10000 ,
b1010011010 /
b10000 6
1A
b1000101 C
0E
#2640000
0&
0(
#2650000
1&
1(
b0 C
#2660000
0&
0(
#2670000
b100 "
b1 #
b10100 $
1&
1(
b101111001101111111111111100 0
b1001 1
b10100 6
0A
b1 C
b11100011 G
b11101 H
#2680000
0&
0(
#2690000
1&
1(
b101111001101111111111111100 /
15
b10 C
#2700000
0&
0(
#2710000
b10100 !
b11000 $
1&
1(
1+
b10100 ,
b10100 4
05
b11000 6
b11 C
#2720000
0&
0(
#2730000
b11111111111111111111111111110000 "
b100 $
b1111111111111100 %
1&
1(
b111100 )
0+
b111100110111111111111110000 -
b11111111111111000000000000000000 .
b1 3
b100 6
b11111 7
b1111111111111100 8
b110 =
b11111111111111111111111111111100 >
b100 C
#2740000
0&
0(
#2750000
1&
1(
b111100 *
b100000000100011111111111111111 0
b11001 ?
b110 C
b100 F
#2760000
0&
0(
#2770000
b1100011 !
b1101100111001 "
b0 #
b1100011 $
1&
1(
b1100011 ,
b100000000100011111111111111111 /
15
1A
b101000 C
#2780000
0&
0(
#2790000
1&
1(
b100 4
05
b1100011 6
b101001 C
#2800000
0&
0(
#2810000
1&
1(
b1010011010 0
b101010 C
#2820000
0&
0(
#2830000
b1010011010 !
b111 #
b0 $
1&
1(
b0 ,
b1010011010 /
15
b0 6
b1000100 C
#2840000
0&
0(
#2850000
b0 !
b0 #
1&
1(
b0 1
b0 4
05
b1000101 C
b100 G
b110 H
#2860000
0&
0(
#2870000
1&
1(
b100000000100010000001010011010 0
b0 C
#2880000
0&
0(
#2890000
b100 "
b1 #
b100 $
1&
1(
b100000000100010000001010011010 /
b1001 1
b100 6
0A
b1 C
b11100011 G
b11101 H
#2900000
0&
0(
#2910000
1&
1(
15
b10 C
#2920000
0&
0(
#2930000
b100 !
b1000 $
1&
1(
1+
b100 ,
b100 4
05
b1000 6
b11 C
#2940000
0&
0(
#2950000
b101001101000 "
b101001101100 $
b1010011010 %
1&
1(
b11010 )
0+
b10001000000101001101000 -
b10100110100000000000000000 .
b1000 3
b101001101100 6
b0 7
b1010011010 8
b0 <
b10001 =
b1010011010 >
b100 C
#2960000
0&
0(
#2970000
1&
1(
b11010 *
b100000000011110000000001100011 0
b11010 ?
b0 B
b110 C
b101001101100 F
b0 J
#2980000
0&
0(
#2990000
b0 !
b1010011010 "
b1010011010 $
1&
1(
b100000000011110000000001100011 /
b1010011010 6
b1000 C
