CPUQuartus/mipsHardware.vcd
$comment
Copyright (C) 1991-2010 Altera Corporation
Your use of Altera Corporation's design tools, logic functions 
and other software and tools, and its AMPP partner logic 
functions, and any output files from any of the foregoing 
(including device programming or simulation files), and any 
associated documentation or information are expressly subject 
to the terms and conditions of the Altera Program License 
Subscription Agreement, Altera MegaCore Function License 
Agreement, or other applicable license agreement, including, 
without limitation, that your use is for the sole purpose of 
programming logic devices manufactured by Altera and sold by 
Altera or its authorized distributors.  Please refer to the 
applicable agreement for further details.
$end

$date 
  10/18/2019 22:38:11 
$end
$version 
 QUARTUS_VCD_EXPORT 1.0 
$end
$timescale
  1 ps
$end
$scope module schemeHard $end
$var reg 32 ! aluAOut[31:0] $end
$var reg 32 " aluBOut[31:0] $end
$var reg 3 # alucontrol[2:0] $end
$var reg 32 $ aluresult[31:0] $end
$var reg 16 % bSExtended[15:0] $end
$var reg 1 & clk $end
$var reg 2 ' controlLS[1:0] $end
$var reg 1 ( debug $end
$var reg 32 ) epcOUT[31:0] $end
$var reg 6 * funct[5:0] $end
$var reg 6 + functOut[5:0] $end
$var reg 32 , hiOut[31:0] $end
$var reg 1 - instControl $end
$var reg 32 . IORDout[31:0] $end
$var reg 32 / j[31:0] $end
$var reg 32 0 loOut[31:0] $end
$var reg 32 1 LuiOut[31:0] $end
$var reg 32 2 MDROut[31:0] $end
$var reg 32 3 memoriaOut[31:0] $end
$var reg 4 4 memtoRegmux[3:0] $end
$var reg 1 5 muxXCHG $end
$var reg 6 6 opcodeW[5:0] $end
$var reg 1 7 overflow $end
$var reg 32 8 pcOut[31:0] $end
$var reg 1 9 pcWriteS $end
$var reg 32 : pcWriteSource[31:0] $end
$var reg 5 ; rd[4:0] $end
$var reg 16 < rdshf[15:0] $end
$var reg 1 = RegWriteC $end
$var reg 1 > reset $end
$var reg 1 ? resetD2 $end
$var reg 5 @ rs[4:0] $end
$var reg 5 A rt[4:0] $end
$var reg 32 B sExtended[31:0] $end
$var reg 5 C shift[4:0] $end
$var reg 32 D shiftOut[31:0] $end
$var reg 1 E sltOut $end
$var reg 32 F SourceSh[31:0] $end
$var reg 7 G stateOut[6:0] $end
$var reg 32 H storeOUT[31:0] $end
$var reg 1 I storeWr $end
$var reg 32 J tratamento[31:0] $end
$var reg 32 K ulaOut_t[31:0] $end
$var reg 32 L wrData[31:0] $end
$var reg 5 M wrReg[4:0] $end
$var reg 32 N xCHG[31:0] $end
$var reg 32 O xchgOUT[31:0] $end
$scope module inst6 $end
$var reg 32 P Reg3[31:0] $end
$var reg 32 Q Reg4[31:0] $end
$var reg 32 R Reg5[31:0] $end
$upscope $end
$upscope $end
$enddefinitions $end
#0
$dumpvars
b0 !
b0 "
b0 #
b0 $
b0 %
0&
b0 '
0(
b0 )
b0 *
b0 +
b0 ,
0-
b0 .
b0 /
b0 0
b0 1
b0 2
b0 3
b0 4
05
b0 6
07
b0 8
09
b0 :
b0 ;
b0 <
0=
0>
0?
b0 @
b0 A
b0 B
b0 C
b0 D
1E
b0 F
b0 G
bX H
0I
b0 J
b0 K
b0 L
b0 M
b0 N
b0 O
b0 P
b0 Q
b0 R
$end
#10000
b100 "
b1 #
b100 $
1&
1(
b1001 4
b100 :
0E
b1 G
b11100011 L
b11101 M
#20000
0&
0(
#30000
1&
1(
b100000000001000000000000001111 3
19
b10 G
#40000
0&
0(
#50000
b100 !
b1000 $
1&
1(
1-
b100 .
b100000000001000000000000001111 2
b100 8
09
b1000 :
b11 G
b1111 J
#60000
0&
0(
#70000
b111100 "
b1000000 $
b1111 %
1&
1(
b1111 *
0-
b100000000000000111100 /
b11110000000000000000 1
b1000 6
b1000000 :
b1111 <
b100 A
b1111 B
b100 G
#80000
0&
0(
#90000
1&
1(
b1111 +
b100000000000110000000000000100 3
b110 G
b1000000 K
#100000
0&
0(
#110000
b0 !
b1111 "
b1111 $
1&
1(
b100000000000110000000000000100 2
b1111 :
b1000 G
b100 J
#120000
0&
0(
#130000
b0 "
b0 #
b0 $
1&
1(
b0 4
b0 :
1=
1E
b1000100 G
b1111 K
b1111 L
b100 M
#140000
0&
0(
#150000
b100 !
b100 $
1&
1(
b100 :
0=
0E
b1000101 G
b1111 Q
#160000
0&
0(
#170000
b1111 "
1&
1(
b1111 C
1E
b0 G
#180000
0&
0(
#190000
b100 "
b1 #
b1000 $
1&
1(
b1001 4
b1000 :
0E
b1 G
b11100011 L
b11101 M
#200000
0&
0(
#210000
1&
1(
19
b10 G
#220000
0&
0(
#230000
b1000 !
b1100 $
1&
1(
1-
b1000 .
b1000 8
09
b1100 :
b11 G
#240000
0&
0(
#250000
b10000 "
b11000 $
b100 %
1&
1(
b100 *
0-
b11000000000000010000 /
b1000000000000000000 1
b11000 :
b100 <
b11 A
b100 B
b100 G
#260000
0&
0(
#270000
1&
1(
b100 +
b100000110000000000011010 3
b0 C
b110 G
b11000 K
#280000
0&
0(
#290000
b0 !
b100 "
b100 $
1&
1(
b100000110000000000011010 2
b100 :
b1000 G
b11010 J
#300000
0&
0(
#310000
b0 "
b0 #
b0 $
1&
1(
b0 4
b0 :
1=
1E
b1000100 G
b100 K
b100 L
b11 M
#320000
0&
0(
#330000
b1000 !
b1000 $
1&
1(
b1000 :
0=
0E
b1000101 G
b100 P
#340000
0&
0(
#350000
b100 "
1&
1(
b100 C
b0 G
#360000
0&
0(
#370000
b1 #
b1100 $
1&
1(
b1001 4
b1100 :
b1 G
b11100011 L
b11101 M
#380000
0&
0(
#390000
1&
1(
19
b10 G
#400000
0&
0(
#410000
b1100 !
b10000 $
1&
1(
1-
b1100 .
b1100 8
09
b10000 :
b11 G
#420000
0&
0(
#430000
b1101000 "
b1110100 $
b11010 %
1&
1(
b11010 *
0-
b10000011000000000001101000 /
b110100000000000000000 1
b0 6
b1110100 :
b11010 <
b100 @
b11010 B
b100 G
#440000
0&
0(
#450000
1&
1(
b11010 +
b10100000010010 3
b1111 F
b110 G
b1110100 K
b1111 O
#460000
0&
0(
#470000
1&
1(
b10100000010010 2
b101101 G
b10010 J
#480000
0&
0(
#490000
1&
1(
#500000
0&
0(
#510000
1&
1(
#520000
0&
0(
#530000
1&
1(
#540000
0&
0(
#550000
1&
1(
#560000
0&
0(
#570000
1&
1(
#580000
0&
0(
#590000
1&
1(
#600000
0&
0(
#610000
1&
1(
#620000
0&
0(
#630000
1&
1(
#640000
0&
0(
#650000
1&
1(
#660000
0&
0(
#670000
1&
1(
#680000
0&
0(
#690000
1&
1(
#700000
0&
0(
#710000
1&
1(
#720000
0&
0(
#730000
1&
1(
#740000
0&
0(
#750000
1&
1(
#760000
0&
0(
#770000
1&
1(
#780000
0&
0(
#790000
1&
1(
#800000
0&
0(
#810000
1&
1(
#820000
0&
0(
#830000
1&
1(
#840000
0&
0(
#850000
1&
1(
#860000
0&
0(
#870000
1&
1(
#880000
0&
0(
#890000
1&
1(
#900000
0&
0(
#910000
1&
1(
#920000
0&
0(
#930000
1&
1(
#940000
0&
0(
#950000
1&
1(
#960000
0&
0(
#970000
1&
1(
#980000
0&
0(
#990000
1&
1(
#1000000
0&
0(
#1010000
1&
1(
#1020000
0&
0(
#1030000
1&
1(
#1040000
0&
0(
#1050000
1&
1(
#1060000
0&
0(
#1070000
1&
1(
#1080000
0&
0(
#1090000
1&
1(
#1100000
0&
0(
#1110000
1&
1(
#1120000
0&
0(
#1130000
1&
1(
b101110 G
#1140000
0&
0(
#1150000
1&
1(
b1000100 G
#1160000
0&
0(
#1170000
b100 "
b0 #
b1100 $
1&
1(
b11 ,
b11 0
b0 4
b1100 :
b1000101 G
b1110100 L
b11 M
#1180000
0&
0(
#1190000
1&
1(
b0 G
#1200000
0&
0(
#1210000
b1 #
b10000 $
1&
1(
b1001 4
b10000 :
b1 G
b11100011 L
b11101 M
#1220000
0&
0(
#1230000
1&
1(
19
b10 G
#1240000
0&
0(
#1250000
b10000 !
b10100 $
1&
1(
1-
b10000 .
b10000 8
09
b10100 :
b11 G
#1260000
0&
0(
#1270000
b1010000001001000 "
b1010000001011000 $
b10100000010010 %
1&
1(
b10010 *
0-
b1010000001001000 /
b101000000100100000000000000000 1
b1010000001011000 :
b101 ;
b10100000010010 <
b0 @
b0 A
b10100000010010 B
b100 G
#1280000
0&
0(
#1290000
1&
1(
b10010 +
b0 3
b0 C
b0 F
b110 G
b1010000001011000 K
b0 O
#1300000
0&
0(
#1310000
1&
1(
b0 2
b11 4
1=
b1000100 G
b0 J
b11 L
b101 M
#1320000
0&
0(
#1330000
b0 "
b0 #
b10000 $
1&
1(
b0 4
b10000 :
0=
b1000101 G
b1010000001011000 L
b0 M
b11 R
#1340000
0&
0(
#1350000
1&
1(
b0 G
#1360000
0&
0(
#1370000
b100 "
b1 #
b10100 $
1&
1(
b1001 4
b10100 :
b1 G
b11100011 L
b11101 M
#1380000
0&
0(
#1390000
1&
1(
19
b10 G
#1400000
0&
0(
#1410000
b10100 !
b11000 $
1&
1(
1-
b10100 .
b10100 8
09
b11000 :
b11 G
#1420000
0&
0(
#1430000
b0 "
b10100 $
b0 %
1&
1(
b0 *
0-
b0 /
b0 1
b10100 :
b0 ;
b0 <
b0 B
b100 G
#1440000
0&
0(
#1450000
1&
1(
b0 +
b110 G
b10100 K
#1460000
0&
0(
#1470000
1&
1(
b1101 G
#1480000
0&
0(
#1490000
b0 #
1&
1(
b0 4
b1111 G
b10100 L
b0 M
#1500000
0&
0(
#1510000
b0 !
b0 $
1&
1(
b111 4
b0 :
1=
1E
b1000100 G
b0 L
#1520000
0&
0(
#1530000
b10100 !
b10100 $
1&
1(
b0 4
b10100 :
0=
0E
b1000101 G
b10100 L
#1540000
0&
0(
#1550000
1&
1(
b0 G
#1560000
0&
0(
#1570000
b100 "
b1 #
b11000 $
1&
1(
b1001 4
b11000 :
b1 G
b11100011 L
b11101 M
#1580000
0&
0(
#1590000
1&
1(
19
b10 G
#1600000
0&
0(
#1610000
b11000 !
b11100 $
1&
1(
1-
b11000 .
b11000 8
09
b11100 :
b11 G
#1620000
0&
0(
#1630000
b0 "
b11000 $
1&
1(
0-
b11000 :
b100 G
#1640000
0&
0(
#1650000
1&
1(
b110 G
b11000 K
#1660000
0&
0(
#1670000
1&
1(
b1101 G
#1680000
0&
0(
#1690000
b0 #
1&
1(
b0 4
b1111 G
b11000 L
b0 M
#1700000
0&
0(
#1710000
b0 !
b0 $
1&
1(
b111 4
b0 :
1=
1E
b1000100 G
b0 L
#1720000
0&
0(
#1730000
b11000 !
b11000 $
1&
1(
b0 4
b11000 :
0=
0E
b1000101 G
b11000 L
#1740000
0&
0(
#1750000
1&
1(
b0 G
#1760000
0&
0(
#1770000
b100 "
b1 #
b11100 $
1&
1(
b1001 4
b11100 :
b1 G
b11100011 L
b11101 M
#1780000
0&
0(
#1790000
1&
1(
19
b10 G
#1800000
0&
0(
#1810000
b11100 !
b100000 $
1&
1(
1-
b11100 .
b11100 8
09
b100000 :
b11 G
#1820000
0&
0(
#1830000
b0 "
b11100 $
1&
1(
0-
b11100 :
b100 G
#1840000
0&
0(
#1850000
1&
1(
b110 G
b11100 K
#1860000
0&
0(
#1870000
1&
1(
b1101 G
#1880000
0&
0(
#1890000
b0 #
1&
1(
b0 4
b1111 G
b11100 L
b0 M
#1900000
0&
0(
#1910000
b0 !
b0 $
1&
1(
b111 4
b0 :
1=
1E
b1000100 G
b0 L
#1920000
0&
0(
#1930000
b11100 !
b11100 $
1&
1(
b0 4
b11100 :
0=
0E
b1000101 G
b11100 L
#1940000
0&
0(
#1950000
1&
1(
b0 G
#1960000
0&
0(
#1970000
b100 "
b1 #
b100000 $
1&
1(
b1001 4
b100000 :
b1 G
b11100011 L
b11101 M
#1980000
0&
0(
#1990000
1&
1(
19
b10 G
#2000000
0&
0(
#2010000
b100000 !
b100100 $
1&
1(
1-
b100000 .
b100000 8
09
b100100 :
b11 G
#2020000
0&
0(
#2030000
b0 "
b100000 $
1&
1(
0-
b100000 :
b100 G
#2040000
0&
0(
#2050000
1&
1(
b110 G
b100000 K
#2060000
0&
0(
#2070000
1&
1(
b1101 G
#2080000
0&
0(
#2090000
b0 #
1&
1(
b0 4
b1111 G
b100000 L
b0 M
#2100000
0&
0(
#2110000
b0 !
b0 $
1&
1(
b111 4
b0 :
1=
1E
b1000100 G
b0 L
#2120000
0&
0(
#2130000
b100000 !
b100000 $
1&
1(
b0 4
b100000 :
0=
0E
b1000101 G
b100000 L
#2140000
0&
0(
#2150000
1&
1(
b0 G
#2160000
0&
0(
#2170000
b100 "
b1 #
b100100 $
1&
1(
b1001 4
b100100 :
b1 G
b11100011 L
b11101 M
#2180000
0&
0(
#2190000
1&
1(
19
b10 G
#2200000
0&
0(
#2210000
b100100 !
b101000 $
1&
1(
1-
b100100 .
b100100 8
09
b101000 :
b11 G
#2220000
0&
0(
#2230000
b0 "
b100100 $
1&
1(
0-
b100100 :
b100 G
#2240000
0&
0(
#2250000
1&
1(
b110 G
b100100 K
#2260000
0&
0(
#2270000
1&
1(
b1101 G
#2280000
0&
0(
#2290000
b0 #
1&
1(
b0 4
b1111 G
b100100 L
b0 M
#2300000
0&
0(
#2310000
b0 !
b0 $
1&
1(
b111 4
b0 :
1=
1E
b1000100 G
b0 L
#2320000
0&
0(
#2330000
b100100 !
b100100 $
1&
1(
b0 4
b100100 :
0=
0E
b1000101 G
b100100 L
#2340000
0&
0(
#2350000
1&
1(
b0 G
#2360000
0&
0(
#2370000
b100 "
b1 #
b101000 $
1&
1(
b1001 4
b101000 :
b1 G
b11100011 L
b11101 M
#2380000
0&
0(
#2390000
1&
1(
19
b10 G
#2400000
0&
0(
#2410000
b101000 !
b101100 $
1&
1(
1-
b101000 .
b101000 8
09
b101100 :
b11 G
#2420000
0&
0(
#2430000
b0 "
b101000 $
1&
1(
0-
b101000 :
b100 G
#2440000
0&
0(
#2450000
1&
1(
b110 G
b101000 K
#2460000
0&
0(
#2470000
1&
1(
b1101 G
#2480000
0&
0(
#2490000
b0 #
1&
1(
b0 4
b1111 G
b101000 L
b0 M
#2500000
0&
0(
#2510000
b0 !
b0 $
1&
1(
b111 4
b0 :
1=
1E
b1000100 G
b0 L
#2520000
0&
0(
#2530000
b101000 !
b101000 $
1&
1(
b0 4
b101000 :
0=
0E
b1000101 G
b101000 L
#2540000
0&
0(
#2550000
1&
1(
b0 G
#2560000
0&
0(
#2570000
b100 "
b1 #
b101100 $
1&
1(
b1001 4
b101100 :
b1 G
b11100011 L
b11101 M
#2580000
0&
0(
#2590000
1&
1(
19
b10 G
#2600000
0&
0(
#2610000
b101100 !
b110000 $
1&
1(
1-
b101100 .
b101100 8
09
b110000 :
b11 G
#2620000
0&
0(
#2630000
b0 "
b101100 $
1&
1(
0-
b101100 :
b100 G
#2640000
0&
0(
#2650000
1&
1(
b110 G
b101100 K
#2660000
0&
0(
#2670000
1&
1(
b1101 G
#2680000
0&
0(
#2690000
b0 #
1&
1(
b0 4
b1111 G
b101100 L
b0 M
#2700000
0&
0(
#2710000
b0 !
b0 $
1&
1(
b111 4
b0 :
1=
1E
b1000100 G
b0 L
#2720000
0&
0(
#2730000
b101100 !
b101100 $
1&
1(
b0 4
b101100 :
0=
0E
b1000101 G
b101100 L
#2740000
0&
0(
#2750000
1&
1(
b0 G
#2760000
0&
0(
#2770000
b100 "
b1 #
b110000 $
1&
1(
b1001 4
b110000 :
b1 G
b11100011 L
b11101 M
#2780000
0&
0(
#2790000
1&
1(
19
b10 G
#2800000
0&
0(
#2810000
b110000 !
b110100 $
1&
1(
1-
b110000 .
b110000 8
09
b110100 :
b11 G
#2820000
0&
0(
#2830000
b0 "
b110000 $
1&
1(
0-
b110000 :
b100 G
#2840000
0&
0(
#2850000
1&
1(
b110 G
b110000 K
#2860000
0&
0(
#2870000
1&
1(
b1101 G
#2880000
0&
0(
#2890000
b0 #
1&
1(
b0 4
b1111 G
b110000 L
b0 M
#2900000
0&
0(
#2910000
b0 !
b0 $
1&
1(
b111 4
b0 :
1=
1E
b1000100 G
b0 L
#2920000
0&
0(
#2930000
b110000 !
b110000 $
1&
1(
b0 4
b110000 :
0=
0E
b1000101 G
b110000 L
#2940000
0&
0(
#2950000
1&
1(
b0 G
#2960000
0&
0(
#2970000
b100 "
b1 #
b110100 $
1&
1(
b1001 4
b110100 :
b1 G
b11100011 L
b11101 M
#2980000
0&
0(
#2990000
1&
1(
19
b10 G
