CPUQuartus/mipsHardware.vcd
$comment
Copyright (C) 1991-2010 Altera Corporation
Your use of Altera Corporation's design tools, logic functions 
and other software and tools, and its AMPP partner logic 
functions, and any output files from any of the foregoing 
(including device programming or simulation files), and any 
associated documentation or information are expressly subject 
to the terms and conditions of the Altera Program License 
Subscription Agreement, Altera MegaCore Function License 
Agreement, or other applicable license agreement, including, 
without limitation, that your use is for the sole purpose of 
programming logic devices manufactured by Altera and sold by 
Altera or its authorized distributors.  Please refer to the 
applicable agreement for further details.
$end

$date 
  10/19/2019 07:45:48 
$end
$version 
 QUARTUS_VCD_EXPORT 1.0 
$end
$timescale
  1 ps
$end
$scope module schemeHard $end
$var reg 32 ! aluAOut[31:0] $end
$var reg 32 " aluBOut[31:0] $end
$var reg 3 # alucontrol[2:0] $end
$var reg 32 $ aluresult[31:0] $end
$var reg 16 % bSExtended[15:0] $end
$var reg 1 & clk $end
$var reg 2 ' controlLS[1:0] $end
$var reg 1 ( debug $end
$var reg 1 ) divByzeroOUT $end
$var reg 1 * divSTOPOUT $end
$var reg 32 + epcOUT[31:0] $end
$var reg 6 , funct[5:0] $end
$var reg 6 - functOut[5:0] $end
$var reg 32 . hiOut[31:0] $end
$var reg 1 / instControl $end
$var reg 32 0 IORDout[31:0] $end
$var reg 32 1 j[31:0] $end
$var reg 32 2 loOut[31:0] $end
$var reg 32 3 LuiOut[31:0] $end
$var reg 32 4 MDROut[31:0] $end
$var reg 32 5 memoriaOut[31:0] $end
$var reg 4 6 memtoRegmux[3:0] $end
$var reg 1 7 muxXCHG $end
$var reg 6 8 opcodeW[5:0] $end
$var reg 1 9 overflow $end
$var reg 32 : pcOut[31:0] $end
$var reg 1 ; pcWriteS $end
$var reg 32 < pcWriteSource[31:0] $end
$var reg 5 = rd[4:0] $end
$var reg 16 > rdshf[15:0] $end
$var reg 1 ? RegWriteC $end
$var reg 1 @ reset $end
$var reg 1 A resetD2 $end
$var reg 5 B rs[4:0] $end
$var reg 5 C rt[4:0] $end
$var reg 32 D sExtended[31:0] $end
$var reg 5 E shift[4:0] $end
$var reg 32 F shiftOut[31:0] $end
$var reg 1 G sltOut $end
$var reg 32 H SourceSh[31:0] $end
$var reg 7 I stateOut[6:0] $end
$var reg 32 J storeOUT[31:0] $end
$var reg 1 K storeWr $end
$var reg 32 L tratamento[31:0] $end
$var reg 32 M ulaOut_t[31:0] $end
$var reg 32 N wrData[31:0] $end
$var reg 5 O wrReg[4:0] $end
$var reg 32 P xCHG[31:0] $end
$var reg 32 Q xchgOUT[31:0] $end
$scope module inst6 $end
$var reg 32 R Reg0[31:0] $end
$var reg 32 S Reg1[31:0] $end
$upscope $end
$upscope $end
$enddefinitions $end
#0
$dumpvars
b0 !
b0 "
b0 #
b0 $
b0 %
0&
b0 '
0(
0)
0*
b0 +
b0 ,
b0 -
b0 .
0/
b0 0
b0 1
b0 2
b0 3
b0 4
b0 5
b0 6
07
b0 8
09
b0 :
0;
b0 <
b0 =
b0 >
0?
0@
0A
b0 B
b0 C
b0 D
b0 E
b0 F
1G
b0 H
b0 I
bX J
0K
b0 L
b0 M
b0 N
b0 O
b0 P
b0 Q
b0 R
b0 S
$end
#10000
b100 "
b1 #
b100 $
1&
1(
b1001 6
b100 <
0G
b1 I
b11100011 N
b11101 O
#20000
0&
0(
#30000
1&
1(
b100000000010000000000011111111 5
1;
b10 I
#40000
0&
0(
#50000
b100 !
b1000 $
1&
1(
1/
b100 0
b100000000010000000000011111111 4
b100 :
0;
b1000 <
b11 I
b11111111 L
#60000
0&
0(
#70000
b1111111100 "
b10000000000 $
b11111111 %
1&
1(
b111111 ,
0/
b1000000000001111111100 1
b111111110000000000000000 3
b1000 8
b10000000000 <
b11111111 >
b1000 C
b11111111 D
b100 I
#80000
0&
0(
#90000
1&
1(
b111111 -
b100000000010010000000001010000 5
b110 I
b10000000000 M
#100000
0&
0(
#110000
b0 !
b11111111 "
b11111111 $
1&
1(
b100000000010010000000001010000 4
b11111111 <
b1000 I
b1010000 L
#120000
0&
0(
#130000
b0 "
b0 #
b0 $
1&
1(
b0 6
b0 <
1?
1G
b1000100 I
b11111111 M
b11111111 N
b1000 O
#140000
0&
0(
#150000
b100 !
b100 $
1&
1(
b100 <
0?
0G
b1000101 I
#160000
0&
0(
#170000
b11111111 "
1&
1(
b11111 E
1G
b0 I
#180000
0&
0(
#190000
b100 "
b1 #
b1000 $
1&
1(
b1001 6
b1000 <
0G
b1 I
b11100011 N
b11101 O
#200000
0&
0(
#210000
1&
1(
1;
b10 I
#220000
0&
0(
#230000
b1000 !
b1100 $
1&
1(
1/
b1000 0
b1000 :
0;
b1100 <
b11 I
#240000
0&
0(
#250000
b101000000 "
b101001000 $
b1010000 %
1&
1(
b10000 ,
0/
b1001000000000101000000 1
b10100000000000000000000 3
b101001000 <
b1010000 >
b1001 C
b1010000 D
b100 I
#260000
0&
0(
#270000
1&
1(
b10000 -
b10100001000010010000000000000000 5
b0 E
b110 I
b101001000 M
#280000
0&
0(
#290000
b0 !
b1010000 "
b1010000 $
1&
1(
b10100001000010010000000000000000 4
b1010000 <
b1000 I
b0 L
#300000
0&
0(
#310000
b0 "
b0 #
b0 $
1&
1(
b0 6
b0 <
1?
1G
b1000100 I
b1010000 M
b1010000 N
b1001 O
#320000
0&
0(
#330000
b1000 !
b1000 $
1&
1(
b1000 <
0?
0G
b1000101 I
#340000
0&
0(
#350000
b1010000 "
1&
1(
b10000 E
1G
b0 I
#360000
0&
0(
#370000
b100 "
b1 #
b1100 $
1&
1(
b1001 6
b1100 <
0G
b1 I
b11100011 N
b11101 O
#380000
0&
0(
#390000
1&
1(
1;
b10 I
#400000
0&
0(
#410000
b1100 !
b10000 $
1&
1(
1/
b1100 0
b1100 :
0;
b10000 <
b11 I
#420000
0&
0(
#430000
b0 "
b1100 $
b0 %
1&
1(
b0 ,
0/
b100001001000000000000000000 1
b0 3
b101000 8
b1100 <
b0 >
b1000 B
b0 D
b100 I
#440000
0&
0(
#450000
1&
1(
b0 -
b100000000100000000000000010100 5
b11111111 H
b110 I
b1100 M
b11111111 Q
#460000
0&
0(
#470000
b11111111 !
b11111111 $
1&
1(
b11111111 0
b100000000100000000000000010100 4
b110 6
b11111111 <
b100110 I
b10100 L
b0 N
b1001 O
#480000
0&
0(
#490000
1&
1(
b0 6
b100111 I
b11111111 M
b11111111 N
#500000
0&
0(
#510000
1&
1(
b1000000000001111111100000000 5
b1000100 I
b100000000100000000000001010000 J
1K
#520000
0&
0(
#530000
b1100 !
b1010000 "
b0 #
b1100 $
1&
1(
b1100 0
b1000000000001111111100000000 4
b1100 <
1G
b1000101 I
b1000000000001111111101010000 J
0K
b0 L
#540000
0&
0(
#550000
1&
1(
b100000000100000000000001010000 5
b0 I
#560000
0&
0(
#570000
b100 "
b1 #
b10000 $
1&
1(
b100000000100000000000001010000 4
b100000000100000000000000010100 5
b1001 6
b10000 <
0G
b1 I
b1010000 L
b11100011 N
b11101 O
#580000
0&
0(
#590000
1&
1(
b100000000100000000000000010100 4
1;
b10 I
b10100 L
#600000
0&
0(
#610000
b10000 !
b10100 $
1&
1(
1/
b10000 0
b10000 :
0;
b10100 <
b11 I
#620000
0&
0(
#630000
b1010000 "
b1100000 $
b10100 %
1&
1(
b10100 ,
0/
b10000000000000001010000 1
b101000000000000000000 3
b1000 8
b1100000 <
b10100 >
b0 B
b10000 C
b10100 D
b100 I
#640000
0&
0(
#650000
1&
1(
b10100 -
b1000100000000000000011010 5
b0 E
b0 H
b110 I
b1100000 M
b0 Q
#660000
0&
0(
#670000
b0 !
b10100 "
b10100 $
1&
1(
b1000100000000000000011010 4
b10100 <
b1000 I
b11010 L
#680000
0&
0(
#690000
b0 "
b0 #
b0 $
1&
1(
b0 6
b0 <
1?
1G
b1000100 I
b10100 M
b10100 N
b10000 O
#700000
0&
0(
#710000
b10000 !
b10000 $
1&
1(
b10000 <
0?
0G
b1000101 I
#720000
0&
0(
#730000
b10100 "
1&
1(
b10100 E
1G
b0 I
#740000
0&
0(
#750000
b100 "
b1 #
b10100 $
1&
1(
b1001 6
b10100 <
0G
b1 I
b11100011 N
b11101 O
#760000
0&
0(
#770000
1&
1(
1;
b10 I
#780000
0&
0(
#790000
b10100 !
b11000 $
1&
1(
1/
b10100 0
b10100 :
0;
b11000 <
b11 I
#800000
0&
0(
#810000
b1101000 "
b1111100 $
b11010 %
1&
1(
b11010 ,
0/
b100010000000000000001101000 1
b110100000000000000000 3
b0 8
b1111100 <
b11010 >
b1000 B
b11010 D
b100 I
#820000
0&
0(
#830000
1&
1(
b11010 -
b1000100000010000 5
b11111111 H
b110 I
b1111100 M
b11111111 Q
#840000
0&
0(
#850000
1&
1(
b1000100000010000 4
b101101 I
b10000 L
#860000
0&
0(
#870000
1&
1(
#880000
0&
0(
#890000
1&
1(
#900000
0&
0(
#910000
1&
1(
#920000
0&
0(
#930000
1&
1(
#940000
0&
0(
#950000
1&
1(
#960000
0&
0(
#970000
1&
1(
#980000
0&
0(
#990000
1&
1(
#1000000
0&
0(
#1010000
1&
1(
#1020000
0&
0(
#1030000
1&
1(
#1040000
0&
0(
#1050000
1&
1(
#1060000
0&
0(
#1070000
1&
1(
#1080000
0&
0(
#1090000
1&
1(
#1100000
0&
0(
#1110000
1&
1(
#1120000
0&
0(
#1130000
1&
1(
#1140000
0&
0(
#1150000
1&
1(
#1160000
0&
0(
#1170000
1&
1(
#1180000
0&
0(
#1190000
1&
1(
#1200000
0&
0(
#1210000
1&
1(
#1220000
0&
0(
#1230000
1&
1(
#1240000
0&
0(
#1250000
1&
1(
#1260000
0&
0(
#1270000
1&
1(
#1280000
0&
0(
#1290000
1&
1(
#1300000
0&
0(
#1310000
1&
1(
#1320000
0&
0(
#1330000
1&
1(
#1340000
0&
0(
#1350000
1&
1(
#1360000
0&
0(
#1370000
1&
1(
#1380000
0&
0(
#1390000
1&
1(
#1400000
0&
0(
#1410000
1&
1(
#1420000
0&
0(
#1430000
1&
1(
#1440000
0&
0(
#1450000
1&
1(
#1460000
0&
0(
#1470000
1&
1(
#1480000
0&
0(
#1490000
1&
1(
1*
#1500000
0&
0(
#1510000
1&
1(
b101110 I
#1520000
0&
0(
#1530000
1&
1(
b1000100 I
#1540000
0&
0(
#1550000
b10100 "
b0 #
b10100 $
1&
1(
b1111 .
b1100 2
b0 6
b10100 <
1G
b1000101 I
b1111100 N
b10000 O
#1560000
0&
0(
#1570000
1&
1(
b0 I
#1580000
0&
0(
#1590000
b100 "
b1 #
b11000 $
1&
1(
b1001 6
b11000 <
0G
b1 I
b11100011 N
b11101 O
#1600000
0&
0(
#1610000
1&
1(
1;
b10 I
#1620000
0&
0(
#1630000
b11000 !
b11100 $
1&
1(
1/
b11000 0
b11000 :
0;
b11100 <
b11 I
#1640000
0&
0(
#1650000
b11111111111111100010000001000000 "
b11111111111111100010000001011000 $
b1000100000010000 %
1&
1(
b10000 ,
0/
b100010000001000000 1
b10001000000100000000000000000000 3
b11111111111111100010000001011000 <
b10001 =
b1000100000010000 >
b0 B
b0 C
b11111111111111111000100000010000 D
1G
b100 I
#1660000
0&
0(
#1670000
1&
1(
b10000 -
b1001000000010010 5
b0 E
b0 H
b110 I
b11111111111111100010000001011000 M
b0 Q
#1680000
0&
0(
#1690000
1&
1(
b1001000000010010 4
b10 6
1?
b1000100 I
b10010 L
b1111 N
b10001 O
#1700000
0&
0(
#1710000
b0 "
b0 #
b11000 $
1&
1(
b0 6
b11000 <
0?
0G
b1000101 I
b11111111111111100010000001011000 N
b0 O
#1720000
0&
0(
#1730000
1&
1(
b0 I
#1740000
0&
0(
#1750000
b100 "
b1 #
b11100 $
1&
1(
b1001 6
b11100 <
b1 I
b11100011 N
b11101 O
#1760000
0&
0(
#1770000
1&
1(
1;
b10 I
#1780000
0&
0(
#1790000
b11100 !
b100000 $
1&
1(
1/
b11100 0
b11100 :
0;
b100000 <
b11 I
#1800000
0&
0(
#1810000
b11111111111111100100000001001000 "
b11111111111111100100000001100100 $
b1001000000010010 %
1&
1(
b10010 ,
0/
b100100000001001000 1
b10010000000100100000000000000000 3
b11111111111111100100000001100100 <
b10010 =
b1001000000010010 >
b11111111111111111001000000010010 D
1G
b100 I
#1820000
0&
0(
#1830000
1&
1(
b10010 -
b0 5
b110 I
b11111111111111100100000001100100 M
#1840000
0&
0(
#1850000
1&
1(
b0 4
b11 6
1?
b1000100 I
b0 L
b1100 N
b10010 O
#1860000
0&
0(
#1870000
b0 "
b0 #
b11100 $
1&
1(
b0 6
b11100 <
0?
0G
b1000101 I
b11111111111111100100000001100100 N
b0 O
#1880000
0&
0(
#1890000
1&
1(
b0 I
#1900000
0&
0(
#1910000
b100 "
b1 #
b100000 $
1&
1(
b1001 6
b100000 <
b1 I
b11100011 N
b11101 O
#1920000
0&
0(
#1930000
1&
1(
1;
b10 I
#1940000
0&
0(
#1950000
b100000 !
b100100 $
1&
1(
1/
b100000 0
b100000 :
0;
b100100 <
b11 I
#1960000
0&
0(
#1970000
b0 "
b100000 $
b0 %
1&
1(
b0 ,
0/
b0 1
b0 3
b100000 <
b0 =
b0 >
b0 D
b100 I
#1980000
0&
0(
#1990000
1&
1(
b0 -
b110 I
b100000 M
#2000000
0&
0(
#2010000
1&
1(
b1101 I
#2020000
0&
0(
#2030000
b0 #
1&
1(
b0 6
b1111 I
b100000 N
b0 O
#2040000
0&
0(
#2050000
b0 !
b0 $
1&
1(
b111 6
b0 <
1?
1G
b1000100 I
b0 N
#2060000
0&
0(
#2070000
b100000 !
b100000 $
1&
1(
b0 6
b100000 <
0?
0G
b1000101 I
b100000 N
#2080000
0&
0(
#2090000
1&
1(
b0 I
#2100000
0&
0(
#2110000
b100 "
b1 #
b100100 $
1&
1(
b1001 6
b100100 <
b1 I
b11100011 N
b11101 O
#2120000
0&
0(
#2130000
1&
1(
1;
b10 I
#2140000
0&
0(
#2150000
b100100 !
b101000 $
1&
1(
1/
b100100 0
b100100 :
0;
b101000 <
b11 I
#2160000
0&
0(
#2170000
b0 "
b100100 $
1&
1(
0/
b100100 <
b100 I
#2180000
0&
0(
#2190000
1&
1(
b110 I
b100100 M
#2200000
0&
0(
#2210000
1&
1(
b1101 I
#2220000
0&
0(
#2230000
b0 #
1&
1(
b0 6
b1111 I
b100100 N
b0 O
#2240000
0&
0(
#2250000
b0 !
b0 $
1&
1(
b111 6
b0 <
1?
1G
b1000100 I
b0 N
#2260000
0&
0(
#2270000
b100100 !
b100100 $
1&
1(
b0 6
b100100 <
0?
0G
b1000101 I
b100100 N
#2280000
0&
0(
#2290000
1&
1(
b0 I
#2300000
0&
0(
#2310000
b100 "
b1 #
b101000 $
1&
1(
b1001 6
b101000 <
b1 I
b11100011 N
b11101 O
#2320000
0&
0(
#2330000
1&
1(
1;
b10 I
#2340000
0&
0(
#2350000
b101000 !
b101100 $
1&
1(
1/
b101000 0
b101000 :
0;
b101100 <
b11 I
#2360000
0&
0(
#2370000
b0 "
b101000 $
1&
1(
0/
b101000 <
b100 I
#2380000
0&
0(
#2390000
1&
1(
b110 I
b101000 M
#2400000
0&
0(
#2410000
1&
1(
b1101 I
#2420000
0&
0(
#2430000
b0 #
1&
1(
b0 6
b1111 I
b101000 N
b0 O
#2440000
0&
0(
#2450000
b0 !
b0 $
1&
1(
b111 6
b0 <
1?
1G
b1000100 I
b0 N
#2460000
0&
0(
#2470000
b101000 !
b101000 $
1&
1(
b0 6
b101000 <
0?
0G
b1000101 I
b101000 N
#2480000
0&
0(
#2490000
1&
1(
b0 I
#2500000
0&
0(
#2510000
b100 "
b1 #
b101100 $
1&
1(
b1001 6
b101100 <
b1 I
b11100011 N
b11101 O
#2520000
0&
0(
#2530000
1&
1(
1;
b10 I
#2540000
0&
0(
#2550000
b101100 !
b110000 $
1&
1(
1/
b101100 0
b101100 :
0;
b110000 <
b11 I
#2560000
0&
0(
#2570000
b0 "
b101100 $
1&
1(
0/
b101100 <
b100 I
#2580000
0&
0(
#2590000
1&
1(
b110 I
b101100 M
#2600000
0&
0(
#2610000
1&
1(
b1101 I
#2620000
0&
0(
#2630000
b0 #
1&
1(
b0 6
b1111 I
b101100 N
b0 O
#2640000
0&
0(
#2650000
b0 !
b0 $
1&
1(
b111 6
b0 <
1?
1G
b1000100 I
b0 N
#2660000
0&
0(
#2670000
b101100 !
b101100 $
1&
1(
b0 6
b101100 <
0?
0G
b1000101 I
b101100 N
#2680000
0&
0(
#2690000
1&
1(
b0 I
#2700000
0&
0(
#2710000
b100 "
b1 #
b110000 $
1&
1(
b1001 6
b110000 <
b1 I
b11100011 N
b11101 O
#2720000
0&
0(
#2730000
1&
1(
1;
b10 I
#2740000
0&
0(
#2750000
b110000 !
b110100 $
1&
1(
1/
b110000 0
b110000 :
0;
b110100 <
b11 I
#2760000
0&
0(
#2770000
b0 "
b110000 $
1&
1(
0/
b110000 <
b100 I
#2780000
0&
0(
#2790000
1&
1(
b110 I
b110000 M
#2800000
0&
0(
#2810000
1&
1(
b1101 I
#2820000
0&
0(
#2830000
b0 #
1&
1(
b0 6
b1111 I
b110000 N
b0 O
#2840000
0&
0(
#2850000
b0 !
b0 $
1&
1(
b111 6
b0 <
1?
1G
b1000100 I
b0 N
#2860000
0&
0(
#2870000
b110000 !
b110000 $
1&
1(
b0 6
b110000 <
0?
0G
b1000101 I
b110000 N
#2880000
0&
0(
#2890000
1&
1(
b0 I
#2900000
0&
0(
#2910000
b100 "
b1 #
b110100 $
1&
1(
b1001 6
b110100 <
b1 I
b11100011 N
b11101 O
#2920000
0&
0(
#2930000
1&
1(
1;
b10 I
#2940000
0&
0(
#2950000
b110100 !
b111000 $
1&
1(
1/
b110100 0
b110100 :
0;
b111000 <
b11 I
#2960000
0&
0(
#2970000
b0 "
b110100 $
1&
1(
0/
b110100 <
b100 I
#2980000
0&
0(
#2990000
1&
1(
b110 I
b110100 M
