CPUQuartus/mipsHardware.vcd
$comment
Copyright (C) 1991-2010 Altera Corporation
Your use of Altera Corporation's design tools, logic functions 
and other software and tools, and its AMPP partner logic 
functions, and any output files from any of the foregoing 
(including device programming or simulation files), and any 
associated documentation or information are expressly subject 
to the terms and conditions of the Altera Program License 
Subscription Agreement, Altera MegaCore Function License 
Agreement, or other applicable license agreement, including, 
without limitation, that your use is for the sole purpose of 
programming logic devices manufactured by Altera and sold by 
Altera or its authorized distributors.  Please refer to the 
applicable agreement for further details.
$end

$date 
  10/18/2019 17:40:38 
$end
$version 
 QUARTUS_VCD_EXPORT 1.0 
$end
$timescale
  1 ps
$end
$scope module schemeHard $end
$var reg 32 ! aluAOut[31:0] $end
$var reg 32 " aluBOut[31:0] $end
$var reg 3 # alucontrol[2:0] $end
$var reg 32 $ aluresult[31:0] $end
$var reg 16 % bSExtended[15:0] $end
$var reg 1 & clk $end
$var reg 2 ' controlLS[1:0] $end
$var reg 1 ( debug $end
$var reg 6 ) funct[5:0] $end
$var reg 6 * functOut[5:0] $end
$var reg 32 + hi_div_Out[31:0] $end
$var reg 32 , hiOUT[31:0] $end
$var reg 1 - instControl $end
$var reg 32 . IORDout[31:0] $end
$var reg 32 / j[31:0] $end
$var reg 32 0 lo_div_out[31:0] $end
$var reg 32 1 loOut[31:0] $end
$var reg 32 2 LuiOut[31:0] $end
$var reg 32 3 MDROut[31:0] $end
$var reg 32 4 memoriaOut[31:0] $end
$var reg 4 5 memtoRegmux[3:0] $end
$var reg 1 6 muxXCHG $end
$var reg 6 7 opcodeW[5:0] $end
$var reg 32 8 pcOut[31:0] $end
$var reg 1 9 pcWriteS $end
$var reg 32 : pcWriteSource[31:0] $end
$var reg 65 ; quotientOut[64:0] $end
$var reg 5 < rd[4:0] $end
$var reg 16 = rdshf[15:0] $end
$var reg 1 > RegWriteC $end
$var reg 1 ? reset $end
$var reg 1 @ resetD2 $end
$var reg 5 A rs[4:0] $end
$var reg 5 B rt[4:0] $end
$var reg 32 C sExtended[31:0] $end
$var reg 5 D shift[4:0] $end
$var reg 32 E shiftOut[31:0] $end
$var reg 1 F sltOut $end
$var reg 32 G SourceSh[31:0] $end
$var reg 7 H stateOut[6:0] $end
$var reg 32 I storeOUT[31:0] $end
$var reg 1 J storeWr $end
$var reg 32 K ulaOut_t[31:0] $end
$var reg 32 L wrData[31:0] $end
$var reg 5 M wrReg[4:0] $end
$var reg 32 N xCHG[31:0] $end
$var reg 32 O xchgOUT[31:0] $end
$scope module inst6 $end
$var reg 32 P Reg0[31:0] $end
$var reg 32 Q Reg1[31:0] $end
$upscope $end
$upscope $end
$enddefinitions $end
#0
$dumpvars
b0 !
b0 "
b0 #
b0 $
b0 %
0&
b0 '
0(
b0 )
b0 *
b0 +
b0 ,
0-
b0 .
b0 /
b0 0
b0 1
b0 2
b0 3
b0 4
b0 5
06
b0 7
b0 8
09
b0 :
b0 ;
b0 <
b0 =
0>
0?
0@
b0 A
b0 B
b0 C
b0 D
b0 E
1F
b0 G
b0 H
bX I
0J
b0 K
b0 L
b0 M
b0 N
b0 O
b0 P
b0 Q
$end
#10000
b100 "
b1 #
b100 $
1&
1(
b1001 5
b100 :
b1 ;
0F
b1 H
b11100011 L
b11101 M
#20000
0&
0(
#30000
1&
1(
b100000000000010001001110100110 4
19
b11 ;
b10 H
#40000
0&
0(
#50000
b100 !
b1000 $
1&
1(
1-
b100 .
b100000000000010001001110100110 3
b100 8
09
b1000 :
b111 ;
b11 H
#60000
0&
0(
#70000
b100111010011000 "
b100111010011100 $
b1001110100110 %
1&
1(
b100110 )
0-
b1000100111010011000 /
b10011101001100000000000000000 2
b1000 7
b100111010011100 :
b1111 ;
b10 <
b1001110100110 =
b1 B
b1001110100110 C
b100 H
#80000
0&
0(
#90000
1&
1(
b100110 *
b100000000000001111111111111001 4
b11111 ;
b110 H
b100111010011100 K
#100000
0&
0(
#110000
b0 !
b1001110100110 "
b1001110100110 $
1&
1(
b100000000000001111111111111001 3
b1001110100110 :
b111111 ;
b1000 H
#120000
0&
0(
#130000
b0 "
b0 #
b0 $
1&
1(
b0 5
b0 :
b1111111 ;
1>
1F
b1000100 H
b1001110100110 K
b1001110100110 L
b1 M
#140000
0&
0(
#150000
b100 !
b100 $
1&
1(
b100 :
b11111111 ;
0>
0F
b1000101 H
b1001110100110 Q
#160000
0&
0(
#170000
b1001110100110 "
1&
1(
b111111111 ;
b110 D
1F
b0 H
#180000
0&
0(
#190000
b100 "
b1 #
b1000 $
1&
1(
b1001 5
b1000 :
b1111111111 ;
0F
b1 H
b11100011 L
b11101 M
#200000
0&
0(
#210000
1&
1(
19
b11111111111 ;
b10 H
#220000
0&
0(
#230000
b1000 !
b1100 $
1&
1(
1-
b1000 .
b1000 8
09
b1100 :
b111111111111 ;
b11 H
#240000
0&
0(
#250000
b11111111111111111111111111100100 "
b11111111111111111111111111101100 $
b1111111111111001 %
1&
1(
b111001 )
0-
b111111111111100100 /
b11111111111110010000000000000000 2
b11111111111111111111111111101100 :
b1111111111111 ;
b11111 <
b1111111111111001 =
b0 B
b11111111111111111111111111111001 C
1F
b100 H
#260000
0&
0(
#270000
1&
1(
b111001 *
b1000000000000000011000 4
b11111111111111 ;
b0 D
b110 H
b11111111111111111111111111101100 K
#280000
0&
0(
#290000
b0 !
b11111111111111111111111111111001 "
b11111111111111111111111111111001 $
1&
1(
b1000000000000000011000 3
b11111111111111111111111111111001 :
b111111111111111 ;
b1000 H
#300000
0&
0(
#310000
b0 "
b0 #
b0 $
1&
1(
b0 5
b0 :
b1111111111111111 ;
1>
b1000100 H
b11111111111111111111111111111001 K
b11111111111111111111111111111001 L
b0 M
#320000
0&
0(
#330000
b1000 !
b1000 $
1&
1(
b1000 :
b11111111111111111 ;
0>
0F
b1000101 H
b11111111111111111111111111111001 P
#340000
0&
0(
#350000
b11111111111111111111111111111001 "
1&
1(
b111111111111111111 ;
b11001 D
b11111111111111111111111111111001 G
b0 H
b11111111111111111111111111111001 O
#360000
0&
0(
#370000
b100 "
b1 #
b1100 $
1&
1(
b1001 5
b1100 :
b1111111111111111111 ;
b1 H
b11100011 L
b11101 M
#380000
0&
0(
#390000
1&
1(
19
b11111111111111111111 ;
b10 H
#400000
0&
0(
#410000
b1100 !
b10000 $
1&
1(
1-
b1100 .
b1100 8
09
b10000 :
b111111111111111111111 ;
b11 H
#420000
0&
0(
#430000
b1100000 "
b1101100 $
b11000 %
1&
1(
b11000 )
0-
b100000000000000001100000 /
b110000000000000000000 2
b0 7
b1101100 :
b1111111111111111111111 ;
b0 <
b11000 =
b1 A
b11000 C
b100 H
#440000
0&
0(
#450000
1&
1(
b11000 *
b0 4
b11111111111111111111111 ;
b1001110100110 G
b110 H
b1101100 K
b1001110100110 O
#460000
0&
0(
#470000
1&
1(
b0 3
b111111111111111111111111 ;
b101011 H
#480000
0&
0(
#490000
1&
1(
b1111111111111111111111111 ;
#500000
0&
0(
#510000
1&
1(
b11111111111111111111111111 ;
#520000
0&
0(
#530000
1&
1(
b111111111111111111111111111 ;
#540000
0&
0(
#550000
1&
1(
b1111111111111111111111111111 ;
#560000
0&
0(
#570000
1&
1(
b11111111111111111111111111111 ;
#580000
0&
0(
#590000
1&
1(
b111111111111111111111111111111 ;
#600000
0&
0(
#610000
1&
1(
b1111111111111111111111111111111 ;
#620000
0&
0(
#630000
1&
1(
b1111111111111111111111111111111 0
b0 ;
#640000
0&
0(
#650000
1&
1(
#660000
0&
0(
#670000
1&
1(
#680000
0&
0(
#690000
1&
1(
#700000
0&
0(
#710000
1&
1(
#720000
0&
0(
#730000
1&
1(
#740000
0&
0(
#750000
1&
1(
#760000
0&
0(
#770000
1&
1(
#780000
0&
0(
#790000
1&
1(
#800000
0&
0(
#810000
1&
1(
#820000
0&
0(
#830000
1&
1(
#840000
0&
0(
#850000
1&
1(
#860000
0&
0(
#870000
1&
1(
#880000
0&
0(
#890000
1&
1(
#900000
0&
0(
#910000
1&
1(
#920000
0&
0(
#930000
1&
1(
#940000
0&
0(
#950000
1&
1(
#960000
0&
0(
#970000
1&
1(
#980000
0&
0(
#990000
1&
1(
#1000000
0&
0(
#1010000
1&
1(
#1020000
0&
0(
#1030000
1&
1(
#1040000
0&
0(
#1050000
1&
1(
#1060000
0&
0(
#1070000
1&
1(
#1080000
0&
0(
#1090000
1&
1(
#1100000
0&
0(
#1110000
1&
1(
b11111111111111111111111111111111 ,
b11111111111111110111011001110110 1
#1120000
0&
0(
#1130000
1&
1(
b101100 H
#1140000
0&
0(
#1150000
1&
1(
b1000100 H
#1160000
0&
0(
#1170000
b11111111111111111111111111111001 "
b0 #
b1100 $
1&
1(
b0 5
b1100 :
b1000101 H
b1101100 L
b0 M
#1180000
0&
0(
#1190000
1&
1(
b0 H
#1200000
0&
0(
#1210000
b100 "
b1 #
b10000 $
1&
1(
b1001 5
b10000 :
b1 H
b11100011 L
b11101 M
#1220000
0&
0(
#1230000
1&
1(
19
b10 H
#1240000
0&
0(
#1250000
b10000 !
b10100 $
1&
1(
1-
b10000 .
b10000 8
09
b10100 :
b11 H
#1260000
0&
0(
#1270000
b0 "
b10000 $
b0 %
1&
1(
b0 )
0-
b0 /
b0 2
b10000 :
b0 =
b0 A
b0 C
b100 H
#1280000
0&
0(
#1290000
1&
1(
b0 *
b11111111111111111111111111111001 G
b110 H
b10000 K
b11111111111111111111111111111001 O
#1300000
0&
0(
#1310000
1&
1(
b0 D
b1101 H
#1320000
0&
0(
#1330000
b11111111111111111111111111111001 "
b0 #
1&
1(
b0 5
b11111111111111111111111111111001 E
b1111 H
b10000 L
b0 M
#1340000
0&
0(
#1350000
b11111111111111111111111111111001 !
b11111111111111111111111111111001 $
1&
1(
b111 5
b11111111111111111111111111111001 :
1>
1F
b1000100 H
b11111111111111111111111111111001 L
#1360000
0&
0(
#1370000
b10000 !
b10000 $
1&
1(
b0 5
b10000 :
0>
b11001 D
0F
b1000101 H
b10000 L
#1380000
0&
0(
#1390000
1&
1(
b0 H
#1400000
0&
0(
#1410000
b100 "
b1 #
b10100 $
1&
1(
b1001 5
b10100 :
b1 H
b11100011 L
b11101 M
#1420000
0&
0(
#1430000
1&
1(
19
b10 H
#1440000
0&
0(
#1450000
b10100 !
b11000 $
1&
1(
1-
b10100 .
b10100 8
09
b11000 :
b11 H
#1460000
0&
0(
#1470000
b0 "
b10100 $
1&
1(
0-
b10100 :
b100 H
#1480000
0&
0(
#1490000
1&
1(
b110 H
b10100 K
#1500000
0&
0(
#1510000
1&
1(
b0 D
b1101 H
#1520000
0&
0(
#1530000
b11111111111111111111111111111001 "
b0 #
1&
1(
b0 5
b1111 H
b10100 L
b0 M
#1540000
0&
0(
#1550000
b11111111111111111111111111111001 !
b11111111111111111111111111111001 $
1&
1(
b111 5
b11111111111111111111111111111001 :
1>
1F
b1000100 H
b11111111111111111111111111111001 L
#1560000
0&
0(
#1570000
b10100 !
b10100 $
1&
1(
b0 5
b10100 :
0>
b11001 D
0F
b1000101 H
b10100 L
#1580000
0&
0(
#1590000
1&
1(
b0 H
#1600000
0&
0(
#1610000
b100 "
b1 #
b11000 $
1&
1(
b1001 5
b11000 :
b1 H
b11100011 L
b11101 M
#1620000
0&
0(
#1630000
1&
1(
19
b10 H
#1640000
0&
0(
#1650000
b11000 !
b11100 $
1&
1(
1-
b11000 .
b11000 8
09
b11100 :
b11 H
#1660000
0&
0(
#1670000
b0 "
b11000 $
1&
1(
0-
b11000 :
b100 H
#1680000
0&
0(
#1690000
1&
1(
b110 H
b11000 K
#1700000
0&
0(
#1710000
1&
1(
b0 D
b1101 H
#1720000
0&
0(
#1730000
b11111111111111111111111111111001 "
b0 #
1&
1(
b0 5
b1111 H
b11000 L
b0 M
#1740000
0&
0(
#1750000
b11111111111111111111111111111001 !
b11111111111111111111111111111001 $
1&
1(
b111 5
b11111111111111111111111111111001 :
1>
1F
b1000100 H
b11111111111111111111111111111001 L
#1760000
0&
0(
#1770000
b11000 !
b11000 $
1&
1(
b0 5
b11000 :
0>
b11001 D
0F
b1000101 H
b11000 L
#1780000
0&
0(
#1790000
1&
1(
b0 H
#1800000
0&
0(
#1810000
b100 "
b1 #
b11100 $
1&
1(
b1001 5
b11100 :
b1 H
b11100011 L
b11101 M
#1820000
0&
0(
#1830000
1&
1(
19
b10 H
#1840000
0&
0(
#1850000
b11100 !
b100000 $
1&
1(
1-
b11100 .
b11100 8
09
b100000 :
b11 H
#1860000
0&
0(
#1870000
b0 "
b11100 $
1&
1(
0-
b11100 :
b100 H
#1880000
0&
0(
#1890000
1&
1(
b110 H
b11100 K
#1900000
0&
0(
#1910000
1&
1(
b0 D
b1101 H
#1920000
0&
0(
#1930000
b11111111111111111111111111111001 "
b0 #
1&
1(
b0 5
b1111 H
b11100 L
b0 M
#1940000
0&
0(
#1950000
b11111111111111111111111111111001 !
b11111111111111111111111111111001 $
1&
1(
b111 5
b11111111111111111111111111111001 :
1>
1F
b1000100 H
b11111111111111111111111111111001 L
#1960000
0&
0(
#1970000
b11100 !
b11100 $
1&
1(
b0 5
b11100 :
0>
b11001 D
0F
b1000101 H
b11100 L
#1980000
0&
0(
#1990000
1&
1(
b0 H
#2000000
0&
0(
#2010000
b100 "
b1 #
b100000 $
1&
1(
b1001 5
b100000 :
b1 H
b11100011 L
b11101 M
#2020000
0&
0(
#2030000
1&
1(
19
b10 H
#2040000
0&
0(
#2050000
b100000 !
b100100 $
1&
1(
1-
b100000 .
b100000 8
09
b100100 :
b11 H
#2060000
0&
0(
#2070000
b0 "
b100000 $
1&
1(
0-
b100000 :
b100 H
#2080000
0&
0(
#2090000
1&
1(
b110 H
b100000 K
#2100000
0&
0(
#2110000
1&
1(
b0 D
b1101 H
#2120000
0&
0(
#2130000
b11111111111111111111111111111001 "
b0 #
1&
1(
b0 5
b1111 H
b100000 L
b0 M
#2140000
0&
0(
#2150000
b11111111111111111111111111111001 !
b11111111111111111111111111111001 $
1&
1(
b111 5
b11111111111111111111111111111001 :
1>
1F
b1000100 H
b11111111111111111111111111111001 L
#2160000
0&
0(
#2170000
b100000 !
b100000 $
1&
1(
b0 5
b100000 :
0>
b11001 D
0F
b1000101 H
b100000 L
#2180000
0&
0(
#2190000
1&
1(
b0 H
#2200000
0&
0(
#2210000
b100 "
b1 #
b100100 $
1&
1(
b1001 5
b100100 :
b1 H
b11100011 L
b11101 M
#2220000
0&
0(
#2230000
1&
1(
19
b10 H
#2240000
0&
0(
#2250000
b100100 !
b101000 $
1&
1(
1-
b100100 .
b100100 8
09
b101000 :
b11 H
#2260000
0&
0(
#2270000
b0 "
b100100 $
1&
1(
0-
b100100 :
b100 H
#2280000
0&
0(
#2290000
1&
1(
b110 H
b100100 K
#2300000
0&
0(
#2310000
1&
1(
b0 D
b1101 H
#2320000
0&
0(
#2330000
b11111111111111111111111111111001 "
b0 #
1&
1(
b0 5
b1111 H
b100100 L
b0 M
#2340000
0&
0(
#2350000
b11111111111111111111111111111001 !
b11111111111111111111111111111001 $
1&
1(
b111 5
b11111111111111111111111111111001 :
1>
1F
b1000100 H
b11111111111111111111111111111001 L
#2360000
0&
0(
#2370000
b100100 !
b100100 $
1&
1(
b0 5
b100100 :
0>
b11001 D
0F
b1000101 H
b100100 L
#2380000
0&
0(
#2390000
1&
1(
b0 H
#2400000
0&
0(
#2410000
b100 "
b1 #
b101000 $
1&
1(
b1001 5
b101000 :
b1 H
b11100011 L
b11101 M
#2420000
0&
0(
#2430000
1&
1(
19
b10 H
#2440000
0&
0(
#2450000
b101000 !
b101100 $
1&
1(
1-
b101000 .
b101000 8
09
b101100 :
b11 H
#2460000
0&
0(
#2470000
b0 "
b101000 $
1&
1(
0-
b101000 :
b100 H
#2480000
0&
0(
#2490000
1&
1(
b110 H
b101000 K
#2500000
0&
0(
#2510000
1&
1(
b0 D
b1101 H
#2520000
0&
0(
#2530000
b11111111111111111111111111111001 "
b0 #
1&
1(
b0 5
b1111 H
b101000 L
b0 M
#2540000
0&
0(
#2550000
b11111111111111111111111111111001 !
b11111111111111111111111111111001 $
1&
1(
b111 5
b11111111111111111111111111111001 :
1>
1F
b1000100 H
b11111111111111111111111111111001 L
#2560000
0&
0(
#2570000
b101000 !
b101000 $
1&
1(
b0 5
b101000 :
0>
b11001 D
0F
b1000101 H
b101000 L
#2580000
0&
0(
#2590000
1&
1(
b0 H
#2600000
0&
0(
#2610000
b100 "
b1 #
b101100 $
1&
1(
b1001 5
b101100 :
b1 H
b11100011 L
b11101 M
#2620000
0&
0(
#2630000
1&
1(
19
b10 H
#2640000
0&
0(
#2650000
b101100 !
b110000 $
1&
1(
1-
b101100 .
b101100 8
09
b110000 :
b11 H
#2660000
0&
0(
#2670000
b0 "
b101100 $
1&
1(
0-
b101100 :
b100 H
#2680000
0&
0(
#2690000
1&
1(
b110 H
b101100 K
#2700000
0&
0(
#2710000
1&
1(
b0 D
b1101 H
#2720000
0&
0(
#2730000
b11111111111111111111111111111001 "
b0 #
1&
1(
b0 5
b1111 H
b101100 L
b0 M
#2740000
0&
0(
#2750000
b11111111111111111111111111111001 !
b11111111111111111111111111111001 $
1&
1(
b111 5
b11111111111111111111111111111001 :
1>
1F
b1000100 H
b11111111111111111111111111111001 L
#2760000
0&
0(
#2770000
b101100 !
b101100 $
1&
1(
b0 5
b101100 :
0>
b11001 D
0F
b1000101 H
b101100 L
#2780000
0&
0(
#2790000
1&
1(
b0 H
#2800000
0&
0(
#2810000
b100 "
b1 #
b110000 $
1&
1(
b1001 5
b110000 :
b1 H
b11100011 L
b11101 M
#2820000
0&
0(
#2830000
1&
1(
19
b10 H
#2840000
0&
0(
#2850000
b110000 !
b110100 $
1&
1(
1-
b110000 .
b110000 8
09
b110100 :
b11 H
#2860000
0&
0(
#2870000
b0 "
b110000 $
1&
1(
0-
b110000 :
b100 H
#2880000
0&
0(
#2890000
1&
1(
b110 H
b110000 K
#2900000
0&
0(
#2910000
1&
1(
b0 D
b1101 H
#2920000
0&
0(
#2930000
b11111111111111111111111111111001 "
b0 #
1&
1(
b0 5
b1111 H
b110000 L
b0 M
#2940000
0&
0(
#2950000
b11111111111111111111111111111001 !
b11111111111111111111111111111001 $
1&
1(
b111 5
b11111111111111111111111111111001 :
1>
1F
b1000100 H
b11111111111111111111111111111001 L
#2960000
0&
0(
#2970000
b110000 !
b110000 $
1&
1(
b0 5
b110000 :
0>
b11001 D
0F
b1000101 H
b110000 L
#2980000
0&
0(
#2990000
1&
1(
b0 H
