CPUQuartus/mipsHardware.vcd
$comment
Copyright (C) 1991-2010 Altera Corporation
Your use of Altera Corporation's design tools, logic functions 
and other software and tools, and its AMPP partner logic 
functions, and any output files from any of the foregoing 
(including device programming or simulation files), and any 
associated documentation or information are expressly subject 
to the terms and conditions of the Altera Program License 
Subscription Agreement, Altera MegaCore Function License 
Agreement, or other applicable license agreement, including, 
without limitation, that your use is for the sole purpose of 
programming logic devices manufactured by Altera and sold by 
Altera or its authorized distributors.  Please refer to the 
applicable agreement for further details.
$end

$date 
  10/17/2019 11:29:41 
$end
$version 
 QUARTUS_VCD_EXPORT 1.0 
$end
$timescale
  1 ps
$end
$scope module schemeHard $end
$var reg 32 ! aluAOut[31:0] $end
$var reg 32 " aluBOut[31:0] $end
$var reg 3 # alucontrol[2:0] $end
$var reg 32 $ aluresult[31:0] $end
$var reg 16 % bSExtended[15:0] $end
$var reg 1 & clk $end
$var reg 1 ' debug $end
$var reg 6 ( funct[5:0] $end
$var reg 6 ) functOut[5:0] $end
$var reg 1 * instControl $end
$var reg 32 + IORDout[31:0] $end
$var reg 32 , LuiOut[31:0] $end
$var reg 4 - memtoRegmux[3:0] $end
$var reg 1 . muxXCHG $end
$var reg 6 / opcodeW[5:0] $end
$var reg 32 0 pcOut[31:0] $end
$var reg 5 1 rd[4:0] $end
$var reg 1 2 RegWriteC $end
$var reg 1 3 reset $end
$var reg 1 4 resetD2 $end
$var reg 5 5 rs[4:0] $end
$var reg 5 6 rt[4:0] $end
$var reg 32 7 sExtended[31:0] $end
$var reg 5 8 shift[4:0] $end
$var reg 32 9 shiftOut[31:0] $end
$var reg 1 : sltOut $end
$var reg 32 ; SourceSh[31:0] $end
$var reg 7 < stateOut[6:0] $end
$var reg 32 = ulaOut_t[31:0] $end
$var reg 32 > wrData[31:0] $end
$var reg 5 ? wrReg[4:0] $end
$var reg 32 @ xCHG[31:0] $end
$var reg 32 A xchgOUT[31:0] $end
$scope module inst6 $end
$var reg 32 B Reg1[31:0] $end
$var reg 32 C Reg0[31:0] $end
$upscope $end
$upscope $end
$enddefinitions $end
#0
$dumpvars
b0 !
b0 "
b0 #
b0 $
b0 %
0&
0'
b0 (
b0 )
0*
b0 +
b0 ,
b0 -
0.
b0 /
b0 0
b0 1
02
03
04
b0 5
b0 6
b0 7
b0 8
b0 9
1:
b0 ;
b0 <
b0 =
b0 >
b0 ?
b0 @
b0 A
b0 B
b0 C
$end
#10000
b100 "
b1 #
b100 $
1&
1'
b1001 -
0:
b1 <
b11100011 >
b11101 ?
#20000
0&
0'
#30000
1&
1'
b10 <
#40000
0&
0'
#50000
b100 !
b1000 $
1&
1'
1*
b100 +
b100 0
b11 <
#60000
0&
0'
#70000
b1 %
1&
1'
b1 (
0*
b10000000000000000 ,
b1000 /
b1 5
b1 6
b1 7
b100 <
#80000
0&
0'
#90000
1&
1'
b1 )
b110 <
b1000 =
#100000
0&
0'
#110000
b0 !
b1 "
b1 $
1&
1'
b1000 <
#120000
0&
0'
#130000
b0 "
b0 #
b0 $
1&
1'
b0 -
12
1:
b1000100 <
b1 =
b1 >
b1 ?
#140000
0&
0'
#150000
b100 !
b100 $
1&
1'
02
0:
b1000101 <
b1 B
#160000
0&
0'
#170000
b1 "
1&
1'
b1 8
b1 ;
b0 <
b1 A
#180000
0&
0'
#190000
b100 "
b1 #
b1000 $
1&
1'
b1001 -
b1 <
b11100011 >
b11101 ?
#200000
0&
0'
#210000
1&
1'
b10 <
#220000
0&
0'
#230000
b1000 !
b1100 $
1&
1'
1*
b1000 +
b1000 0
b11 <
#240000
0&
0'
#250000
b101000 "
b110000 $
b1010 %
1&
1'
b1010 (
0*
b10100000000000000000 ,
b1010 /
b0 6
b1010 7
b100 <
#260000
0&
0'
#270000
1&
1'
b1010 )
b0 8
b110 <
b110000 =
#280000
0&
0'
#290000
b1 !
b1010 "
b111 #
b0 $
1&
1'
b100 -
12
1:
b1000100 <
b1 >
b0 ?
#300000
0&
0'
#310000
b1000 !
b0 "
b0 #
b1000 $
1&
1'
b0 -
02
0:
b1000101 <
b110000 >
b1 C
#320000
0&
0'
#330000
b1 "
1&
1'
b1 8
b0 <
#340000
0&
0'
#350000
b100 "
b1 #
b1100 $
1&
1'
b1001 -
b1 <
b11100011 >
b11101 ?
#360000
0&
0'
#370000
1&
1'
b10 <
#380000
0&
0'
#390000
b1100 !
b10000 $
1&
1'
1*
b1100 +
b1100 0
b11 <
#400000
0&
0'
#410000
b10000010101000 "
b10000010110100 $
b100000101010 %
1&
1'
b101010 (
0*
b1000001010100000000000000000 ,
b0 /
b1 1
b0 5
b1 6
b100000101010 7
b100 <
#420000
0&
0'
#430000
1&
1'
b101010 )
b110 <
b10000010110100 =
#440000
0&
0'
#450000
b1 !
b1 "
b111 #
b0 $
1&
1'
b100 -
12
b1000100 <
b0 >
b1 ?
#460000
0&
0'
#470000
b1100 !
b0 #
b1100 $
1&
1'
b0 -
02
b1000101 <
b10000010110100 >
b0 B
#480000
0&
0'
#490000
b0 "
1&
1'
b0 8
b0 <
#500000
0&
0'
#510000
b100 "
b1 #
b10000 $
1&
1'
b1001 -
b1 <
b11100011 >
b11101 ?
#520000
0&
0'
#530000
1&
1'
b10 <
#540000
0&
0'
#550000
b10000 !
b10100 $
1&
1'
1*
b10000 +
b10000 0
b11 <
#560000
0&
0'
#570000
b0 "
b10000 $
b0 %
1&
1'
b0 (
0*
b0 ,
b0 1
b0 6
b0 7
b100 <
#580000
0&
0'
#590000
1&
1'
b0 )
b1 8
b110 <
b10000 =
#600000
0&
0'
#610000
1&
1'
b0 8
b1101 <
#620000
0&
0'
#630000
b1 "
b0 #
1&
1'
b0 -
b1 9
b1111 <
b10000 >
b0 ?
#640000
0&
0'
#650000
b1 !
b1 $
1&
1'
b111 -
12
1:
b1000100 <
b1 >
#660000
0&
0'
#670000
b10000 !
b10000 $
1&
1'
b0 -
02
b1 8
0:
b1000101 <
b10000 >
#680000
0&
0'
#690000
1&
1'
b0 <
#700000
0&
0'
#710000
b100 "
b1 #
b10100 $
1&
1'
b1001 -
b1 <
b11100011 >
b11101 ?
#720000
0&
0'
#730000
1&
1'
b10 <
#740000
0&
0'
#750000
b10100 !
b11000 $
1&
1'
1*
b10100 +
b10100 0
b11 <
#760000
0&
0'
#770000
b0 "
b10100 $
1&
1'
0*
b100 <
#780000
0&
0'
#790000
1&
1'
b110 <
b10100 =
#800000
0&
0'
#810000
1&
1'
b0 8
b1101 <
#820000
0&
0'
#830000
b1 "
b0 #
1&
1'
b0 -
b1111 <
b10100 >
b0 ?
#840000
0&
0'
#850000
b1 !
b1 $
1&
1'
b111 -
12
1:
b1000100 <
b1 >
#860000
0&
0'
#870000
b10100 !
b10100 $
1&
1'
b0 -
02
b1 8
0:
b1000101 <
b10100 >
#880000
0&
0'
#890000
1&
1'
b0 <
#900000
0&
0'
#910000
b100 "
b1 #
b11000 $
1&
1'
b1001 -
b1 <
b11100011 >
b11101 ?
#920000
0&
0'
#930000
1&
1'
b10 <
#940000
0&
0'
#950000
b11000 !
b11100 $
1&
1'
1*
b11000 +
b11000 0
b11 <
#960000
0&
0'
#970000
b0 "
b11000 $
1&
1'
0*
b100 <
#980000
0&
0'
#990000
1&
1'
b110 <
b11000 =
