CPUQuartus/mipsHardware.vcd
$comment
Copyright (C) 1991-2010 Altera Corporation
Your use of Altera Corporation's design tools, logic functions 
and other software and tools, and its AMPP partner logic 
functions, and any output files from any of the foregoing 
(including device programming or simulation files), and any 
associated documentation or information are expressly subject 
to the terms and conditions of the Altera Program License 
Subscription Agreement, Altera MegaCore Function License 
Agreement, or other applicable license agreement, including, 
without limitation, that your use is for the sole purpose of 
programming logic devices manufactured by Altera and sold by 
Altera or its authorized distributors.  Please refer to the 
applicable agreement for further details.
$end

$date 
  10/18/2019 16:14:45 
$end
$version 
 QUARTUS_VCD_EXPORT 1.0 
$end
$timescale
  1 ps
$end
$scope module schemeHard $end
$var reg 32 ! aluAOut[31:0] $end
$var reg 32 " aluBOut[31:0] $end
$var reg 3 # alucontrol[2:0] $end
$var reg 32 $ aluresult[31:0] $end
$var reg 16 % bSExtended[15:0] $end
$var reg 1 & clk $end
$var reg 2 ' controlLS[1:0] $end
$var reg 1 ( debug $end
$var reg 6 ) funct[5:0] $end
$var reg 6 * functOut[5:0] $end
$var reg 32 + hiOUT[31:0] $end
$var reg 1 , instControl $end
$var reg 32 - IORDout[31:0] $end
$var reg 32 . j[31:0] $end
$var reg 32 / loOut[31:0] $end
$var reg 32 0 LuiOut[31:0] $end
$var reg 32 1 MDROut[31:0] $end
$var reg 32 2 memoriaOut[31:0] $end
$var reg 4 3 memtoRegmux[3:0] $end
$var reg 1 4 muxXCHG $end
$var reg 6 5 opcodeW[5:0] $end
$var reg 32 6 pcOut[31:0] $end
$var reg 1 7 pcWriteS $end
$var reg 32 8 pcWriteSource[31:0] $end
$var reg 5 9 rd[4:0] $end
$var reg 16 : rdshf[15:0] $end
$var reg 1 ; RegWriteC $end
$var reg 1 < reset $end
$var reg 1 = resetD2 $end
$var reg 5 > rs[4:0] $end
$var reg 5 ? rt[4:0] $end
$var reg 32 @ sExtended[31:0] $end
$var reg 5 A shift[4:0] $end
$var reg 32 B shiftOut[31:0] $end
$var reg 1 C sltOut $end
$var reg 32 D SourceSh[31:0] $end
$var reg 7 E stateOut[6:0] $end
$var reg 32 F storeOUT[31:0] $end
$var reg 1 G storeWr $end
$var reg 32 H ulaOut_t[31:0] $end
$var reg 32 I wrData[31:0] $end
$var reg 5 J wrReg[4:0] $end
$var reg 32 K xCHG[31:0] $end
$var reg 32 L xchgOUT[31:0] $end
$scope module inst6 $end
$var reg 32 M Reg0[31:0] $end
$var reg 32 N Reg1[31:0] $end
$upscope $end
$upscope $end
$enddefinitions $end
#0
$dumpvars
b0 !
b0 "
b0 #
b0 $
b0 %
0&
b0 '
0(
b0 )
b0 *
b0 +
0,
b0 -
b0 .
b0 /
b0 0
b0 1
b0 2
b0 3
04
b0 5
b0 6
07
b0 8
b0 9
b0 :
0;
0<
0=
b0 >
b0 ?
b0 @
b0 A
b0 B
1C
b0 D
b0 E
bX F
0G
b0 H
b0 I
b0 J
b0 K
b0 L
b0 M
b0 N
$end
#10000
b100 "
b1 #
b100 $
1&
1(
b1001 3
b100 8
0C
b1 E
b11100011 I
b11101 J
#20000
0&
0(
#30000
1&
1(
b100000000000010111111111111111 2
17
b10 E
#40000
0&
0(
#50000
b100 !
b1000 $
1&
1(
1,
b100 -
b100000000000010111111111111111 1
b100 6
07
b1000 8
b11 E
#60000
0&
0(
#70000
b11111111111111100 "
b100000000000000000 $
b111111111111111 %
1&
1(
b111111 )
0,
b1011111111111111100 .
b1111111111111110000000000000000 0
b1000 5
b100000000000000000 8
b1111 9
b111111111111111 :
b1 ?
b111111111111111 @
b100 E
#80000
0&
0(
#90000
1&
1(
b111111 *
b100000000000001000000000000001 2
b110 E
b100000000000000000 H
#100000
0&
0(
#110000
b0 !
b111111111111111 "
b111111111111111 $
1&
1(
b100000000000001000000000000001 1
b111111111111111 8
b1000 E
#120000
0&
0(
#130000
b0 "
b0 #
b0 $
1&
1(
b0 3
b0 8
1;
1C
b1000100 E
b111111111111111 H
b111111111111111 I
b1 J
#140000
0&
0(
#150000
b100 !
b100 $
1&
1(
b100 8
0;
0C
b1000101 E
b111111111111111 N
#160000
0&
0(
#170000
b111111111111111 "
1&
1(
b11111 A
1C
b0 E
#180000
0&
0(
#190000
b100 "
b1 #
b1000 $
1&
1(
b1001 3
b1000 8
0C
b1 E
b11100011 I
b11101 J
#200000
0&
0(
#210000
1&
1(
17
b10 E
#220000
0&
0(
#230000
b1000 !
b1100 $
1&
1(
1,
b1000 -
b1000 6
07
b1100 8
b11 E
#240000
0&
0(
#250000
b11111111111111100000000000000100 "
b11111111111111100000000000001100 $
b1000000000000001 %
1&
1(
b1 )
0,
b100000000000000100 .
b10000000000000010000000000000000 0
b11111111111111100000000000001100 8
b10000 9
b1000000000000001 :
b0 ?
b11111111111111111000000000000001 @
1C
b100 E
#260000
0&
0(
#270000
1&
1(
b1 *
b10000000000011000 2
b0 A
b110 E
b11111111111111100000000000001100 H
#280000
0&
0(
#290000
b0 !
b11111111111111111000000000000001 "
b11111111111111111000000000000001 $
1&
1(
b10000000000011000 1
b11111111111111111000000000000001 8
b1000 E
#300000
0&
0(
#310000
b0 "
b0 #
b0 $
1&
1(
b0 3
b0 8
1;
b1000100 E
b11111111111111111000000000000001 H
b11111111111111111000000000000001 I
b0 J
#320000
0&
0(
#330000
b1000 !
b1000 $
1&
1(
b1000 8
0;
0C
b1000101 E
b11111111111111111000000000000001 M
#340000
0&
0(
#350000
b11111111111111111000000000000001 "
1&
1(
b1 A
b11111111111111111000000000000001 D
b0 E
b11111111111111111000000000000001 L
#360000
0&
0(
#370000
b100 "
b1 #
b1100 $
1&
1(
b1001 3
b1100 8
b1 E
b11100011 I
b11101 J
#380000
0&
0(
#390000
1&
1(
17
b10 E
#400000
0&
0(
#410000
b1100 !
b10000 $
1&
1(
1,
b1100 -
b1100 6
07
b10000 8
b11 E
#420000
0&
0(
#430000
b1100000 "
b1101100 $
b11000 %
1&
1(
b11000 )
0,
b1000000000001100000 .
b110000000000000000000 0
b0 5
b1101100 8
b0 9
b11000 :
b1 ?
b11000 @
b100 E
#440000
0&
0(
#450000
1&
1(
b11000 *
b0 2
b11111 A
b110 E
b1101100 H
#460000
0&
0(
#470000
1&
1(
b0 1
b101011 E
#480000
0&
0(
#490000
1&
1(
#500000
0&
0(
#510000
1&
1(
#520000
0&
0(
#530000
1&
1(
#540000
0&
0(
#550000
1&
1(
#560000
0&
0(
#570000
1&
1(
#580000
0&
0(
#590000
1&
1(
#600000
0&
0(
#610000
1&
1(
#620000
0&
0(
#630000
1&
1(
#640000
0&
0(
#650000
1&
1(
#660000
0&
0(
#670000
1&
1(
#680000
0&
0(
#690000
1&
1(
#700000
0&
0(
#710000
1&
1(
#720000
0&
0(
#730000
1&
1(
#740000
0&
0(
#750000
1&
1(
#760000
0&
0(
#770000
1&
1(
#780000
0&
0(
#790000
1&
1(
#800000
0&
0(
#810000
1&
1(
#820000
0&
0(
#830000
1&
1(
#840000
0&
0(
#850000
1&
1(
#860000
0&
0(
#870000
1&
1(
#880000
0&
0(
#890000
1&
1(
#900000
0&
0(
#910000
1&
1(
#920000
0&
0(
#930000
1&
1(
#940000
0&
0(
#950000
1&
1(
#960000
0&
0(
#970000
1&
1(
#980000
0&
0(
#990000
1&
1(
#1000000
0&
0(
#1010000
1&
1(
#1020000
0&
0(
#1030000
1&
1(
#1040000
0&
0(
#1050000
1&
1(
#1060000
0&
0(
#1070000
1&
1(
#1080000
0&
0(
#1090000
1&
1(
#1100000
0&
0(
#1110000
1&
1(
b11000000000000001111111111111111 /
#1120000
0&
0(
#1130000
1&
1(
b101100 E
#1140000
0&
0(
#1150000
1&
1(
b1000100 E
#1160000
0&
0(
#1170000
b111111111111111 "
b0 #
b1100 $
1&
1(
b0 3
b1100 8
1C
b1000101 E
b1101100 I
b1 J
#1180000
0&
0(
#1190000
1&
1(
b0 E
#1200000
0&
0(
#1210000
b100 "
b1 #
b10000 $
1&
1(
b1001 3
b10000 8
0C
b1 E
b11100011 I
b11101 J
#1220000
0&
0(
#1230000
1&
1(
17
b10 E
#1240000
0&
0(
#1250000
b10000 !
b10100 $
1&
1(
1,
b10000 -
b10000 6
07
b10100 8
b11 E
#1260000
0&
0(
#1270000
b0 "
b10000 $
b0 %
1&
1(
b0 )
0,
b0 .
b0 0
b10000 8
b0 :
b0 ?
b0 @
b100 E
#1280000
0&
0(
#1290000
1&
1(
b0 *
b1 A
b110 E
b10000 H
#1300000
0&
0(
#1310000
1&
1(
b0 A
b1101 E
#1320000
0&
0(
#1330000
b11111111111111111000000000000001 "
b0 #
1&
1(
b0 3
b11111111111111111000000000000001 B
b1111 E
b10000 I
b0 J
#1340000
0&
0(
#1350000
b11111111111111111000000000000001 !
b11111111111111111000000000000001 $
1&
1(
b111 3
b11111111111111111000000000000001 8
1;
1C
b1000100 E
b11111111111111111000000000000001 I
#1360000
0&
0(
#1370000
b10000 !
b10000 $
1&
1(
b0 3
b10000 8
0;
b1 A
0C
b1000101 E
b10000 I
#1380000
0&
0(
#1390000
1&
1(
b0 E
#1400000
0&
0(
#1410000
b100 "
b1 #
b10100 $
1&
1(
b1001 3
b10100 8
b1 E
b11100011 I
b11101 J
#1420000
0&
0(
#1430000
1&
1(
17
b10 E
#1440000
0&
0(
#1450000
b10100 !
b11000 $
1&
1(
1,
b10100 -
b10100 6
07
b11000 8
b11 E
#1460000
0&
0(
#1470000
b0 "
b10100 $
1&
1(
0,
b10100 8
b100 E
#1480000
0&
0(
#1490000
1&
1(
b110 E
b10100 H
#1500000
0&
0(
#1510000
1&
1(
b0 A
b1101 E
#1520000
0&
0(
#1530000
b11111111111111111000000000000001 "
b0 #
1&
1(
b0 3
b1111 E
b10100 I
b0 J
#1540000
0&
0(
#1550000
b11111111111111111000000000000001 !
b11111111111111111000000000000001 $
1&
1(
b111 3
b11111111111111111000000000000001 8
1;
1C
b1000100 E
b11111111111111111000000000000001 I
#1560000
0&
0(
#1570000
b10100 !
b10100 $
1&
1(
b0 3
b10100 8
0;
b1 A
0C
b1000101 E
b10100 I
#1580000
0&
0(
#1590000
1&
1(
b0 E
#1600000
0&
0(
#1610000
b100 "
b1 #
b11000 $
1&
1(
b1001 3
b11000 8
b1 E
b11100011 I
b11101 J
#1620000
0&
0(
#1630000
1&
1(
17
b10 E
#1640000
0&
0(
#1650000
b11000 !
b11100 $
1&
1(
1,
b11000 -
b11000 6
07
b11100 8
b11 E
#1660000
0&
0(
#1670000
b0 "
b11000 $
1&
1(
0,
b11000 8
b100 E
#1680000
0&
0(
#1690000
1&
1(
b110 E
b11000 H
#1700000
0&
0(
#1710000
1&
1(
b0 A
b1101 E
#1720000
0&
0(
#1730000
b11111111111111111000000000000001 "
b0 #
1&
1(
b0 3
b1111 E
b11000 I
b0 J
#1740000
0&
0(
#1750000
b11111111111111111000000000000001 !
b11111111111111111000000000000001 $
1&
1(
b111 3
b11111111111111111000000000000001 8
1;
1C
b1000100 E
b11111111111111111000000000000001 I
#1760000
0&
0(
#1770000
b11000 !
b11000 $
1&
1(
b0 3
b11000 8
0;
b1 A
0C
b1000101 E
b11000 I
#1780000
0&
0(
#1790000
1&
1(
b0 E
#1800000
0&
0(
#1810000
b100 "
b1 #
b11100 $
1&
1(
b1001 3
b11100 8
b1 E
b11100011 I
b11101 J
#1820000
0&
0(
#1830000
1&
1(
17
b10 E
#1840000
0&
0(
#1850000
b11100 !
b100000 $
1&
1(
1,
b11100 -
b11100 6
07
b100000 8
b11 E
#1860000
0&
0(
#1870000
b0 "
b11100 $
1&
1(
0,
b11100 8
b100 E
#1880000
0&
0(
#1890000
1&
1(
b110 E
b11100 H
#1900000
0&
0(
#1910000
1&
1(
b0 A
b1101 E
#1920000
0&
0(
#1930000
b11111111111111111000000000000001 "
b0 #
1&
1(
b0 3
b1111 E
b11100 I
b0 J
#1940000
0&
0(
#1950000
b11111111111111111000000000000001 !
b11111111111111111000000000000001 $
1&
1(
b111 3
b11111111111111111000000000000001 8
1;
1C
b1000100 E
b11111111111111111000000000000001 I
#1960000
0&
0(
#1970000
b11100 !
b11100 $
1&
1(
b0 3
b11100 8
0;
b1 A
0C
b1000101 E
b11100 I
#1980000
0&
0(
#1990000
1&
1(
b0 E
#2000000
0&
0(
#2010000
b100 "
b1 #
b100000 $
1&
1(
b1001 3
b100000 8
b1 E
b11100011 I
b11101 J
#2020000
0&
0(
#2030000
1&
1(
17
b10 E
#2040000
0&
0(
#2050000
b100000 !
b100100 $
1&
1(
1,
b100000 -
b100000 6
07
b100100 8
b11 E
#2060000
0&
0(
#2070000
b0 "
b100000 $
1&
1(
0,
b100000 8
b100 E
#2080000
0&
0(
#2090000
1&
1(
b110 E
b100000 H
#2100000
0&
0(
#2110000
1&
1(
b0 A
b1101 E
#2120000
0&
0(
#2130000
b11111111111111111000000000000001 "
b0 #
1&
1(
b0 3
b1111 E
b100000 I
b0 J
#2140000
0&
0(
#2150000
b11111111111111111000000000000001 !
b11111111111111111000000000000001 $
1&
1(
b111 3
b11111111111111111000000000000001 8
1;
1C
b1000100 E
b11111111111111111000000000000001 I
#2160000
0&
0(
#2170000
b100000 !
b100000 $
1&
1(
b0 3
b100000 8
0;
b1 A
0C
b1000101 E
b100000 I
#2180000
0&
0(
#2190000
1&
1(
b0 E
#2200000
0&
0(
#2210000
b100 "
b1 #
b100100 $
1&
1(
b1001 3
b100100 8
b1 E
b11100011 I
b11101 J
#2220000
0&
0(
#2230000
1&
1(
17
b10 E
#2240000
0&
0(
#2250000
b100100 !
b101000 $
1&
1(
1,
b100100 -
b100100 6
07
b101000 8
b11 E
#2260000
0&
0(
#2270000
b0 "
b100100 $
1&
1(
0,
b100100 8
b100 E
#2280000
0&
0(
#2290000
1&
1(
b110 E
b100100 H
#2300000
0&
0(
#2310000
1&
1(
b0 A
b1101 E
#2320000
0&
0(
#2330000
b11111111111111111000000000000001 "
b0 #
1&
1(
b0 3
b1111 E
b100100 I
b0 J
#2340000
0&
0(
#2350000
b11111111111111111000000000000001 !
b11111111111111111000000000000001 $
1&
1(
b111 3
b11111111111111111000000000000001 8
1;
1C
b1000100 E
b11111111111111111000000000000001 I
#2360000
0&
0(
#2370000
b100100 !
b100100 $
1&
1(
b0 3
b100100 8
0;
b1 A
0C
b1000101 E
b100100 I
#2380000
0&
0(
#2390000
1&
1(
b0 E
#2400000
0&
0(
#2410000
b100 "
b1 #
b101000 $
1&
1(
b1001 3
b101000 8
b1 E
b11100011 I
b11101 J
#2420000
0&
0(
#2430000
1&
1(
17
b10 E
#2440000
0&
0(
#2450000
b101000 !
b101100 $
1&
1(
1,
b101000 -
b101000 6
07
b101100 8
b11 E
#2460000
0&
0(
#2470000
b0 "
b101000 $
1&
1(
0,
b101000 8
b100 E
#2480000
0&
0(
#2490000
1&
1(
b110 E
b101000 H
#2500000
0&
0(
#2510000
1&
1(
b0 A
b1101 E
#2520000
0&
0(
#2530000
b11111111111111111000000000000001 "
b0 #
1&
1(
b0 3
b1111 E
b101000 I
b0 J
#2540000
0&
0(
#2550000
b11111111111111111000000000000001 !
b11111111111111111000000000000001 $
1&
1(
b111 3
b11111111111111111000000000000001 8
1;
1C
b1000100 E
b11111111111111111000000000000001 I
#2560000
0&
0(
#2570000
b101000 !
b101000 $
1&
1(
b0 3
b101000 8
0;
b1 A
0C
b1000101 E
b101000 I
#2580000
0&
0(
#2590000
1&
1(
b0 E
#2600000
0&
0(
#2610000
b100 "
b1 #
b101100 $
1&
1(
b1001 3
b101100 8
b1 E
b11100011 I
b11101 J
#2620000
0&
0(
#2630000
1&
1(
17
b10 E
#2640000
0&
0(
#2650000
b101100 !
b110000 $
1&
1(
1,
b101100 -
b101100 6
07
b110000 8
b11 E
#2660000
0&
0(
#2670000
b0 "
b101100 $
1&
1(
0,
b101100 8
b100 E
#2680000
0&
0(
#2690000
1&
1(
b110 E
b101100 H
#2700000
0&
0(
#2710000
1&
1(
b0 A
b1101 E
#2720000
0&
0(
#2730000
b11111111111111111000000000000001 "
b0 #
1&
1(
b0 3
b1111 E
b101100 I
b0 J
#2740000
0&
0(
#2750000
b11111111111111111000000000000001 !
b11111111111111111000000000000001 $
1&
1(
b111 3
b11111111111111111000000000000001 8
1;
1C
b1000100 E
b11111111111111111000000000000001 I
#2760000
0&
0(
#2770000
b101100 !
b101100 $
1&
1(
b0 3
b101100 8
0;
b1 A
0C
b1000101 E
b101100 I
#2780000
0&
0(
#2790000
1&
1(
b0 E
#2800000
0&
0(
#2810000
b100 "
b1 #
b110000 $
1&
1(
b1001 3
b110000 8
b1 E
b11100011 I
b11101 J
#2820000
0&
0(
#2830000
1&
1(
17
b10 E
#2840000
0&
0(
#2850000
b110000 !
b110100 $
1&
1(
1,
b110000 -
b110000 6
07
b110100 8
b11 E
#2860000
0&
0(
#2870000
b0 "
b110000 $
1&
1(
0,
b110000 8
b100 E
#2880000
0&
0(
#2890000
1&
1(
b110 E
b110000 H
#2900000
0&
0(
#2910000
1&
1(
b0 A
b1101 E
#2920000
0&
0(
#2930000
b11111111111111111000000000000001 "
b0 #
1&
1(
b0 3
b1111 E
b110000 I
b0 J
#2940000
0&
0(
#2950000
b11111111111111111000000000000001 !
b11111111111111111000000000000001 $
1&
1(
b111 3
b11111111111111111000000000000001 8
1;
1C
b1000100 E
b11111111111111111000000000000001 I
#2960000
0&
0(
#2970000
b110000 !
b110000 $
1&
1(
b0 3
b110000 8
0;
b1 A
0C
b1000101 E
b110000 I
#2980000
0&
0(
#2990000
1&
1(
b0 E
